ID	adj.P.Val	P.Value	t	B	logFC	miRNA_ID	SPOT_ID
hsa-miR-514	0.332	0.000922	4.38	-1.16	6.55	hsa-miR-514	
hsa-miR-17*	0.332	0.002044	3.93	-1.64	4.17	hsa-miR-17*	
hsa-miR-509-3p	0.332	0.002085	3.92	-1.65	5.74	hsa-miR-509-3p	
hsa-miR-509-5p	0.332	0.002438	3.83	-1.75	5.01	hsa-miR-509-5p	
hsa-miR-506	0.332	0.003666	3.61	-2	5.67	hsa-miR-506	
hsa-miR-510	0.332	0.004081	3.55	-2.07	4.31	hsa-miR-510	
hsa-miR-508-3p	0.332	0.004719	3.47	-2.17	4.68	hsa-miR-508-3p	
hsa-miR-513b	0.332	0.005228	3.41	-2.23	4.36	hsa-miR-513b	
hsa-miR-150*	0.332	0.005311	3.41	-2.24	4.11	hsa-miR-150*	
hsa-miR-514b-5p	0.332	0.00545	3.39	-2.26	4.97	hsa-miR-514b-5p	
hsa-miR-513c	0.332	0.006364	3.31	-2.36	4.70	hsa-miR-513c	
hsa-miR-509-3-5p	0.332	0.00906	3.12	-2.59	4.32	hsa-miR-509-3-5p	
hsa-miR-301a	0.332	0.011572	2.98	-2.75	4.25	hsa-miR-301a	
hsa-miR-382	0.332	0.01386	-2.89	-2.87	-2.72	hsa-miR-382	
hsa-miR-10a	0.332	0.015776	2.82	-2.95	1.18	hsa-miR-10a	
hsa-miR-370	0.332	0.015813	-2.81	-2.96	-2.95	hsa-miR-370	
hsa-miR-379	0.332	0.017018	-2.77	-3.01	-3.98	hsa-miR-379	
hsa-miR-629	0.332	0.018939	-2.72	-3.08	-1.83e-01	hsa-miR-629	
hsa-miR-1224-5p	0.332	0.023689	2.59	-3.23	3.41	hsa-miR-1224-5p	
hsa-miR-17	0.332	0.025827	2.55	-3.28	1.31	hsa-miR-17	
hsa-miR-4299	0.332	0.026038	-2.54	-3.29	-1.07	hsa-miR-4299	
hsa-miR-409-3p	0.332	0.026211	-2.54	-3.29	-4.09	hsa-miR-409-3p	
hsa-miR-4257	0.332	0.028713	2.49	-3.35	4.38	hsa-miR-4257	
hsa-miR-2278	0.332	0.029335	-2.48	-3.37	-2.52e-01	hsa-miR-2278	
hsa-miR-425	0.332	0.030135	-2.46	-3.39	-9.84e-01	hsa-miR-425	
ebv-miR-BART19-3p	0.332	0.030784	-2.45	-3.4	-3.25	ebv-miR-BART19-3p	
hsa-miR-654-3p	0.332	0.0319	-2.43	-3.43	-3.40	hsa-miR-654-3p	
hsa-miR-299-5p	0.332	0.033441	-2.41	-3.46	-3.44	hsa-miR-299-5p	
hsa-miR-18a	0.332	0.035018	2.38	-3.49	3.79	hsa-miR-18a	
hsa-miR-4327	0.332	0.037013	2.35	-3.53	3.90	hsa-miR-4327	
hsa-miR-9	0.332	0.037152	-2.35	-3.53	-3.13	hsa-miR-9	
hsa-miR-371-5p	0.332	0.038686	2.33	-3.56	3.69	hsa-miR-371-5p	
hsa-miR-7-1*	0.332	0.038946	-2.32	-3.56	-3.07e-01	hsa-miR-7-1*	
hsa-miR-19b	0.332	0.044547	2.25	-3.65	1.04	hsa-miR-19b	
hsa-miR-513a-5p	0.332	0.045438	2.24	-3.66	1.49	hsa-miR-513a-5p	
hsa-miR-500a*	0.332	0.046213	2.23	-3.67	2.85	hsa-miR-500a*	
hsa-miR-30c-1*	0.332	0.046773	-2.22	-3.68	-1.60e-01	hsa-miR-30c-1*	
hsa-miR-20a	0.332	0.047568	2.21	-3.69	1.16	hsa-miR-20a	
hsa-miR-210	0.332	0.049241	-2.19	-3.72	-1.21	hsa-miR-210	
hsa-miR-29b-1*	0.332	0.051349	2.17	-3.75	2.79	hsa-miR-29b-1*	
hsa-miR-21	0.332	0.055326	2.13	-3.8	4.72e-01	hsa-miR-21	
hsa-miR-532-3p	0.332	0.057412	2.10	-3.82	2.15	hsa-miR-532-3p	
hsa-miR-1973	0.332	0.059174	-2.09	-3.84	-2.62	hsa-miR-1973	
hsa-miR-1181	0.332	0.063777	2.04	-3.89	2.73	hsa-miR-1181	
hsa-miR-362-3p	0.332	0.067239	2.01	-3.93	3.09	hsa-miR-362-3p	
dmr_31a	0.332	0.069477	-2.00	-3.95	-4.89e-01		dmr_31a
hsa-miR-330-3p	0.332	0.070043	-1.99	-3.95	-5.64e-01	hsa-miR-330-3p	
hsa-miR-542-5p	0.332	0.070212	-1.99	-3.95	-3.47	hsa-miR-542-5p	
hsa-miR-660	0.332	0.073751	1.96	-3.99	5.62e-01	hsa-miR-660	
hsa-miR-377	0.332	0.074299	-1.96	-3.99	-2.99	hsa-miR-377	
hsa-miR-590-5p	0.332	0.074971	1.95	-4	2.78	hsa-miR-590-5p	
hsa-miR-10b	0.332	0.076708	1.94	-4.01	8.88e-01	hsa-miR-10b	
hsa-miR-1228	0.332	0.07715	-1.94	-4.02	-2.44	hsa-miR-1228	
hsa-miR-29b	0.332	0.079017	1.92	-4.03	1.19	hsa-miR-29b	
hsa-miR-3663-5p	0.332	0.081218	-1.91	-4.05	-7.34e-01	hsa-miR-3663-5p	
hsa-miR-595	0.332	0.084654	-1.88	-4.08	-8.05e-01	hsa-miR-595	
hsa-miR-211	0.332	0.086613	1.87	-4.09	3.66	hsa-miR-211	
hsa-miR-1275	0.332	0.088374	-1.86	-4.11	-1.06	hsa-miR-1275	
hsa-miR-663	0.332	0.091129	1.84	-4.13	1.33	hsa-miR-663	
hsa-miR-3149	0.332	0.097236	-1.80	-4.17	-1.21	hsa-miR-3149	
hsa-miR-3648	0.332	0.098252	1.79	-4.18	2.91	hsa-miR-3648	
hsa-miR-32*	0.332	0.09901	-1.79	-4.18	-1.30	hsa-miR-32*	
hsa-miR-7	0.332	0.099079	-1.79	-4.18	-1.30	hsa-miR-7	
hsa-miR-140-3p	0.332	0.101252	-1.78	-4.2	-6.45e-01	hsa-miR-140-3p	
hsa-miR-223*	0.332	0.102753	-1.77	-4.21	-1.53	hsa-miR-223*	
hsa-miR-30b	0.332	0.103256	1.77	-4.21	8.01e-01	hsa-miR-30b	
hsa-miR-101	0.332	0.104256	1.76	-4.22	2.10	hsa-miR-101	
hsa-miR-484	0.332	0.108015	-1.74	-4.24	-2.21	hsa-miR-484	
hsa-miR-125b-2*	0.332	0.108716	-1.73	-4.24	-1.50	hsa-miR-125b-2*	
hsa-miR-154	0.332	0.108758	-1.73	-4.24	-1.50	hsa-miR-154	
hsa-miR-432	0.332	0.108935	-1.73	-4.24	-1.52	hsa-miR-432	
hsa-miR-34b	0.332	0.110275	-1.73	-4.25	-1.38	hsa-miR-34b	
hsa-miR-410	0.332	0.110478	-1.73	-4.25	-1.69	hsa-miR-410	
hsa-miR-340	0.332	0.111359	-1.72	-4.26	-1.79	hsa-miR-340	
hsa-miR-374a	0.332	0.111991	1.72	-4.26	2.07	hsa-miR-374a	
hsa-miR-106b	0.332	0.119112	1.68	-4.3	7.02e-01	hsa-miR-106b	
hsa-miR-454	0.332	0.119743	1.68	-4.31	2.21	hsa-miR-454	
hsa-miR-193b	0.332	0.120119	-1.68	-4.31	-8.73e-01	hsa-miR-193b	
hsa-miR-193a-5p	0.332	0.123053	-1.66	-4.32	-1.99	hsa-miR-193a-5p	
hsa-miR-3131	0.332	0.123744	-1.66	-4.33	-1.64	hsa-miR-3131	
hsa-miR-3651	0.332	0.132371	-1.62	-4.37	-6.40e-01	hsa-miR-3651	
hsa-miR-320c	0.332	0.13689	-1.60	-4.39	-3.27e-01	hsa-miR-320c	
hsa-miR-20b	0.332	0.139436	1.58	-4.4	1.24	hsa-miR-20b	
hsa-miR-27a	0.332	0.139763	1.58	-4.41	3.18e-01	hsa-miR-27a	
hsa-miR-324-5p	0.332	0.14004	1.58	-4.41	5.32e-01	hsa-miR-324-5p	
hsa-miR-126	0.332	0.143325	-1.57	-4.42	-5.46e-01	hsa-miR-126	
hsa-miR-22	0.332	0.144972	-1.56	-4.43	-4.46e-01	hsa-miR-22	
hsa-miR-487b	0.332	0.145317	-1.56	-4.43	-2.22	hsa-miR-487b	
hsa-miR-146a	0.332	0.145557	1.56	-4.43	1.24	hsa-miR-146a	
hsa-miR-96	0.332	0.146499	-1.55	-4.44	-2.79	hsa-miR-96	
hsa-let-7f	0.332	0.153517	1.53	-4.47	3.15e-01	hsa-let-7f	
hsa-miR-25	0.332	0.161264	1.49	-4.5	5.77e-01	hsa-miR-25	
hsa-miR-29a	0.332	0.170678	1.46	-4.53	4.70e-01	hsa-miR-29a	
hsa-miR-198	0.332	0.171933	-1.45	-4.54	-5.17e-01	hsa-miR-198	
hsa-miR-19a	0.332	0.174929	1.44	-4.55	1.23	hsa-miR-19a	
hsa-miR-501-3p	0.332	0.178433	1.43	-4.56	1.52	hsa-miR-501-3p	
hsa-miR-103a	0.332	0.182515	1.42	-4.57	2.33e-01	hsa-miR-103a	
hsa-miR-99b	0.332	0.184113	-1.41	-4.58	-4.85e-01	hsa-miR-99b	
hsa-let-7g	0.332	0.188004	1.40	-4.59	4.03e-01	hsa-let-7g	
hsv2-miR-H24	0.332	0.192146	-1.38	-4.61	-3.80e-01	hsv2-miR-H24	
hsa-miR-30d	0.332	0.192357	1.38	-4.61	5.53e-01	hsa-miR-30d	
hsa-miR-9*	0.332	0.195945	-1.37	-4.62	-2.59	hsa-miR-9*	
hsa-miR-149	0.332	0.202026	-1.35	-4.64	-2.39	hsa-miR-149	
hsa-miR-18b	0.332	0.204171	1.34	-4.64	2.11	hsa-miR-18b	
hsa-miR-181a*	0.332	0.20488	1.34	-4.65	2.31	hsa-miR-181a*	
hur_4	0.332	0.205822	1.34	-4.65	1.27e-01		hur_4
hsa-miR-494	0.332	0.20743	-1.33	-4.65	-6.23e-01	hsa-miR-494	
hsa-miR-136	0.332	0.207552	-1.33	-4.65	-2.10	hsa-miR-136	
hsa-miR-381	0.332	0.208947	-1.33	-4.66	-1.43	hsa-miR-381	
hsv2-miR-H6	0.332	0.209549	1.33	-4.66	8.55e-01	hsv2-miR-H6	
hsa-miR-128	0.332	0.213311	1.32	-4.67	1.50	hsa-miR-128	
hsa-miR-376a	0.332	0.215917	-1.31	-4.68	-2.25	hsa-miR-376a	
mr_1	0.332	0.217898	1.30	-4.68	2.68e-01		mr_1
hsa-let-7i	0.332	0.222268	1.29	-4.7	3.37e-01	hsa-let-7i	
hsa-miR-1234	0.332	0.224217	1.28	-4.7	2.01	hsa-miR-1234	
hsa-miR-19b-1*	0.332	0.229459	1.27	-4.71	1.31	hsa-miR-19b-1*	
dmr_6	0.332	0.229713	-1.27	-4.72	-3.30e-01		dmr_6
hsa-miR-92a	0.332	0.229965	1.27	-4.72	6.25e-01	hsa-miR-92a	
hsa-miR-3198	0.332	0.235023	-1.25	-4.73	-1.49	hsa-miR-3198	
hsa-miR-196b	0.332	0.236009	-1.25	-4.73	-1.95	hsa-miR-196b	
hsa-miR-505	0.332	0.244531	-1.22	-4.75	-1.27	hsa-miR-505	
hsa-miR-572	0.332	0.245064	-1.22	-4.75	-5.30e-01	hsa-miR-572	
hsa-miR-181d	0.332	0.248335	1.21	-4.76	1.18	hsa-miR-181d	
hsa-let-7e	0.332	0.248614	-1.21	-4.76	-3.02e-01	hsa-let-7e	
hsa-miR-376c	0.332	0.252349	-1.20	-4.77	-1.95	hsa-miR-376c	
hsa-miR-378*	0.332	0.253237	1.20	-4.77	8.89e-01	hsa-miR-378*	
hsa-miR-221*	0.332	0.254422	1.20	-4.78	1.47	hsa-miR-221*	
hsa-miR-93	0.332	0.260887	1.18	-4.79	4.02e-01	hsa-miR-93	
hsa-miR-320e	0.332	0.262845	-1.18	-4.8	-3.49e-01	hsa-miR-320e	
hsa-miR-374b	0.332	0.264112	1.17	-4.8	1.58	hsa-miR-374b	
hsa-miR-20a*	0.332	0.264545	1.17	-4.8	1.45	hsa-miR-20a*	
bkv-miR-B1-3p	0.332	0.266694	-1.17	-4.8	-6.15e-02	bkv-miR-B1-3p	
bkv-miR-B1-5p	0.332	0.266694	-1.17	-4.8	-6.15e-02	bkv-miR-B1-5p	
Blank	0.332	0.266694	-1.17	-4.8	-6.15e-02		Blank
dmr_308	0.332	0.266694	-1.17	-4.8	-6.15e-02		dmr_308
dmr_316	0.332	0.266694	-1.17	-4.8	-6.15e-02		dmr_316
ebv-miR-BART1-3p	0.332	0.266694	-1.17	-4.8	-6.15e-02	ebv-miR-BART1-3p	
ebv-miR-BART1-5p	0.332	0.266694	-1.17	-4.8	-6.15e-02	ebv-miR-BART1-5p	
ebv-miR-BART10	0.332	0.266694	-1.17	-4.8	-6.15e-02	ebv-miR-BART10	
ebv-miR-BART10*	0.332	0.266694	-1.17	-4.8	-6.15e-02	ebv-miR-BART10*	
ebv-miR-BART11-3p	0.332	0.266694	-1.17	-4.8	-6.15e-02	ebv-miR-BART11-3p	
ebv-miR-BART11-5p	0.332	0.266694	-1.17	-4.8	-6.15e-02	ebv-miR-BART11-5p	
ebv-miR-BART13*	0.332	0.266694	-1.17	-4.8	-6.15e-02	ebv-miR-BART13*	
ebv-miR-BART14	0.332	0.266694	-1.17	-4.8	-6.15e-02	ebv-miR-BART14	
ebv-miR-BART14*	0.332	0.266694	-1.17	-4.8	-6.15e-02	ebv-miR-BART14*	
ebv-miR-BART15	0.332	0.266694	-1.17	-4.8	-6.15e-02	ebv-miR-BART15	
ebv-miR-BART17-3p	0.332	0.266694	-1.17	-4.8	-6.15e-02	ebv-miR-BART17-3p	
ebv-miR-BART17-5p	0.332	0.266694	-1.17	-4.8	-6.15e-02	ebv-miR-BART17-5p	
ebv-miR-BART18-3p	0.332	0.266694	-1.17	-4.8	-6.15e-02	ebv-miR-BART18-3p	
ebv-miR-BART18-5p	0.332	0.266694	-1.17	-4.8	-6.15e-02	ebv-miR-BART18-5p	
ebv-miR-BART19-5p	0.332	0.266694	-1.17	-4.8	-6.15e-02	ebv-miR-BART19-5p	
ebv-miR-BART2-3p	0.332	0.266694	-1.17	-4.8	-6.15e-02	ebv-miR-BART2-3p	
ebv-miR-BART2-5p	0.332	0.266694	-1.17	-4.8	-6.15e-02	ebv-miR-BART2-5p	
ebv-miR-BART20-3p	0.332	0.266694	-1.17	-4.8	-6.15e-02	ebv-miR-BART20-3p	
ebv-miR-BART20-5p	0.332	0.266694	-1.17	-4.8	-6.15e-02	ebv-miR-BART20-5p	
ebv-miR-BART21-3p	0.332	0.266694	-1.17	-4.8	-6.15e-02	ebv-miR-BART21-3p	
ebv-miR-BART21-5p	0.332	0.266694	-1.17	-4.8	-6.15e-02	ebv-miR-BART21-5p	
ebv-miR-BART22	0.332	0.266694	-1.17	-4.8	-6.15e-02	ebv-miR-BART22	
ebv-miR-BART3	0.332	0.266694	-1.17	-4.8	-6.15e-02	ebv-miR-BART3	
ebv-miR-BART4	0.332	0.266694	-1.17	-4.8	-6.15e-02	ebv-miR-BART4	
ebv-miR-BART4*	0.332	0.266694	-1.17	-4.8	-6.15e-02	ebv-miR-BART4*	
ebv-miR-BART5	0.332	0.266694	-1.17	-4.8	-6.15e-02	ebv-miR-BART5	
ebv-miR-BART5*	0.332	0.266694	-1.17	-4.8	-6.15e-02	ebv-miR-BART5*	
ebv-miR-BART6-3p	0.332	0.266694	-1.17	-4.8	-6.15e-02	ebv-miR-BART6-3p	
ebv-miR-BART6-5p	0.332	0.266694	-1.17	-4.8	-6.15e-02	ebv-miR-BART6-5p	
ebv-miR-BART7	0.332	0.266694	-1.17	-4.8	-6.15e-02	ebv-miR-BART7	
ebv-miR-BART7*	0.332	0.266694	-1.17	-4.8	-6.15e-02	ebv-miR-BART7*	
ebv-miR-BART8	0.332	0.266694	-1.17	-4.8	-6.15e-02	ebv-miR-BART8	
ebv-miR-BART8*	0.332	0.266694	-1.17	-4.8	-6.15e-02	ebv-miR-BART8*	
ebv-miR-BART9	0.332	0.266694	-1.17	-4.8	-6.15e-02	ebv-miR-BART9	
ebv-miR-BART9*	0.332	0.266694	-1.17	-4.8	-6.15e-02	ebv-miR-BART9*	
ebv-miR-BHRF1-1	0.332	0.266694	-1.17	-4.8	-6.15e-02	ebv-miR-BHRF1-1	
ebv-miR-BHRF1-2	0.332	0.266694	-1.17	-4.8	-6.15e-02	ebv-miR-BHRF1-2	
ebv-miR-BHRF1-2*	0.332	0.266694	-1.17	-4.8	-6.15e-02	ebv-miR-BHRF1-2*	
ebv-miR-BHRF1-3	0.332	0.266694	-1.17	-4.8	-6.15e-02	ebv-miR-BHRF1-3	
hbv-miR-B20	0.332	0.266694	-1.17	-4.8	-6.15e-02	hbv-miR-B20	
hbv-miR-B4	0.332	0.266694	-1.17	-4.8	-6.15e-02	hbv-miR-B4	
hcmv-miR-UL112	0.332	0.266694	-1.17	-4.8	-6.15e-02	hcmv-miR-UL112	
hcmv-miR-UL148D	0.332	0.266694	-1.17	-4.8	-6.15e-02	hcmv-miR-UL148D	
hcmv-miR-UL22A	0.332	0.266694	-1.17	-4.8	-6.15e-02	hcmv-miR-UL22A	
hcmv-miR-UL22A*	0.332	0.266694	-1.17	-4.8	-6.15e-02	hcmv-miR-UL22A*	
hcmv-miR-UL36	0.332	0.266694	-1.17	-4.8	-6.15e-02	hcmv-miR-UL36	
hcmv-miR-UL36*	0.332	0.266694	-1.17	-4.8	-6.15e-02	hcmv-miR-UL36*	
hcmv-miR-UL70-5p	0.332	0.266694	-1.17	-4.8	-6.15e-02	hcmv-miR-UL70-5p	
hcmv-miR-US25-1	0.332	0.266694	-1.17	-4.8	-6.15e-02	hcmv-miR-US25-1	
hcmv-miR-US25-1*	0.332	0.266694	-1.17	-4.8	-6.15e-02	hcmv-miR-US25-1*	
hcmv-miR-US25-2-3p	0.332	0.266694	-1.17	-4.8	-6.15e-02	hcmv-miR-US25-2-3p	
hcmv-miR-US25-2-5p	0.332	0.266694	-1.17	-4.8	-6.15e-02	hcmv-miR-US25-2-5p	
hcmv-miR-US33-3p	0.332	0.266694	-1.17	-4.8	-6.15e-02	hcmv-miR-US33-3p	
hcmv-miR-US33-5p	0.332	0.266694	-1.17	-4.8	-6.15e-02	hcmv-miR-US33-5p	
hcmv-miR-US5-1	0.332	0.266694	-1.17	-4.8	-6.15e-02	hcmv-miR-US5-1	
hcmv-miR-US5-2	0.332	0.266694	-1.17	-4.8	-6.15e-02	hcmv-miR-US5-2	
hiv1-miR-N367	0.332	0.266694	-1.17	-4.8	-6.15e-02	hiv1-miR-N367	
hiv1-miR-TAR-3p	0.332	0.266694	-1.17	-4.8	-6.15e-02	hiv1-miR-TAR-3p	
hiv1-miR-TAR-5p	0.332	0.266694	-1.17	-4.8	-6.15e-02	hiv1-miR-TAR-5p	
hsa-let-7a*	0.332	0.266694	-1.17	-4.8	-6.15e-02	hsa-let-7a*	
hsa-let-7b*	0.332	0.266694	-1.17	-4.8	-6.15e-02	hsa-let-7b*	
hsa-let-7c*_v16.0	0.332	0.266694	-1.17	-4.8	-6.15e-02	hsa-let-7c*_v16.0	
hsa-let-7d*	0.332	0.266694	-1.17	-4.8	-6.15e-02	hsa-let-7d*	
hsa-let-7e*	0.332	0.266694	-1.17	-4.8	-6.15e-02	hsa-let-7e*	
hsa-let-7f-1*	0.332	0.266694	-1.17	-4.8	-6.15e-02	hsa-let-7f-1*	
hsa-let-7f-2*	0.332	0.266694	-1.17	-4.8	-6.15e-02	hsa-let-7f-2*	
hsa-let-7g*	0.332	0.266694	-1.17	-4.8	-6.15e-02	hsa-let-7g*	
hsa-let-7i*	0.332	0.266694	-1.17	-4.8	-6.15e-02	hsa-let-7i*	
hsa-miR-100*	0.332	0.266694	-1.17	-4.8	-6.15e-02	hsa-miR-100*	
hsa-miR-101*	0.332	0.266694	-1.17	-4.8	-6.15e-02	hsa-miR-101*	
hsa-miR-103a-2*	0.332	0.266694	-1.17	-4.8	-6.15e-02	hsa-miR-103a-2*	
hsa-miR-103b	0.332	0.266694	-1.17	-4.8	-6.15e-02	hsa-miR-103b	
hsa-miR-105*	0.332	0.266694	-1.17	-4.8	-6.15e-02	hsa-miR-105*	
hsa-miR-106a*	0.332	0.266694	-1.17	-4.8	-6.15e-02	hsa-miR-106a*	
hsa-miR-106b*	0.332	0.266694	-1.17	-4.8	-6.15e-02	hsa-miR-106b*	
hsa-miR-10a*	0.332	0.266694	-1.17	-4.8	-6.15e-02	hsa-miR-10a*	
hsa-miR-10b*	0.332	0.266694	-1.17	-4.8	-6.15e-02	hsa-miR-10b*	
hsa-miR-1178	0.332	0.266694	-1.17	-4.8	-6.15e-02	hsa-miR-1178	
hsa-miR-1179	0.332	0.266694	-1.17	-4.8	-6.15e-02	hsa-miR-1179	
hsa-miR-1180	0.332	0.266694	-1.17	-4.8	-6.15e-02	hsa-miR-1180	
hsa-miR-1182	0.332	0.266694	-1.17	-4.8	-6.15e-02	hsa-miR-1182	
hsa-miR-1184	0.332	0.266694	-1.17	-4.8	-6.15e-02	hsa-miR-1184	
hsa-miR-1185	0.332	0.266694	-1.17	-4.8	-6.15e-02	hsa-miR-1185	
hsa-miR-1193	0.332	0.266694	-1.17	-4.8	-6.15e-02	hsa-miR-1193	
hsa-miR-1197	0.332	0.266694	-1.17	-4.8	-6.15e-02	hsa-miR-1197	
hsa-miR-1200	0.332	0.266694	-1.17	-4.8	-6.15e-02	hsa-miR-1200	
hsa-miR-1203	0.332	0.266694	-1.17	-4.8	-6.15e-02	hsa-miR-1203	
hsa-miR-1204	0.332	0.266694	-1.17	-4.8	-6.15e-02	hsa-miR-1204	
hsa-miR-1205	0.332	0.266694	-1.17	-4.8	-6.15e-02	hsa-miR-1205	
hsa-miR-1206	0.332	0.266694	-1.17	-4.8	-6.15e-02	hsa-miR-1206	
hsa-miR-1207-3p	0.332	0.266694	-1.17	-4.8	-6.15e-02	hsa-miR-1207-3p	
hsa-miR-1208	0.332	0.266694	-1.17	-4.8	-6.15e-02	hsa-miR-1208	
hsa-miR-122	0.332	0.266694	-1.17	-4.8	-6.15e-02	hsa-miR-122	
hsa-miR-122*	0.332	0.266694	-1.17	-4.8	-6.15e-02	hsa-miR-122*	
hsa-miR-1224-3p	0.332	0.266694	-1.17	-4.8	-6.15e-02	hsa-miR-1224-3p	
hsa-miR-1225-3p	0.332	0.266694	-1.17	-4.8	-6.15e-02	hsa-miR-1225-3p	
hsa-miR-1226	0.332	0.266694	-1.17	-4.8	-6.15e-02	hsa-miR-1226	
hsa-miR-1227	0.332	0.266694	-1.17	-4.8	-6.15e-02	hsa-miR-1227	
hsa-miR-1228*	0.332	0.266694	-1.17	-4.8	-6.15e-02	hsa-miR-1228*	
hsa-miR-1229	0.332	0.266694	-1.17	-4.8	-6.15e-02	hsa-miR-1229	
hsa-miR-1231	0.332	0.266694	-1.17	-4.8	-6.15e-02	hsa-miR-1231	
hsa-miR-1233	0.332	0.266694	-1.17	-4.8	-6.15e-02	hsa-miR-1233	
hsa-miR-1236	0.332	0.266694	-1.17	-4.8	-6.15e-02	hsa-miR-1236	
hsa-miR-1237	0.332	0.266694	-1.17	-4.8	-6.15e-02	hsa-miR-1237	
hsa-miR-1238	0.332	0.266694	-1.17	-4.8	-6.15e-02	hsa-miR-1238	
hsa-miR-124	0.332	0.266694	-1.17	-4.8	-6.15e-02	hsa-miR-124	
hsa-miR-124*	0.332	0.266694	-1.17	-4.8	-6.15e-02	hsa-miR-124*	
hsa-miR-1243	0.332	0.266694	-1.17	-4.8	-6.15e-02	hsa-miR-1243	
hsa-miR-1244	0.332	0.266694	-1.17	-4.8	-6.15e-02	hsa-miR-1244	
hsa-miR-1245	0.332	0.266694	-1.17	-4.8	-6.15e-02	hsa-miR-1245	
hsa-miR-1247	0.332	0.266694	-1.17	-4.8	-6.15e-02	hsa-miR-1247	
hsa-miR-1248	0.332	0.266694	-1.17	-4.8	-6.15e-02	hsa-miR-1248	
hsa-miR-1250	0.332	0.266694	-1.17	-4.8	-6.15e-02	hsa-miR-1250	
hsa-miR-1251	0.332	0.266694	-1.17	-4.8	-6.15e-02	hsa-miR-1251	
hsa-miR-1252	0.332	0.266694	-1.17	-4.8	-6.15e-02	hsa-miR-1252	
hsa-miR-1253	0.332	0.266694	-1.17	-4.8	-6.15e-02	hsa-miR-1253	
hsa-miR-1254	0.332	0.266694	-1.17	-4.8	-6.15e-02	hsa-miR-1254	
hsa-miR-1255a	0.332	0.266694	-1.17	-4.8	-6.15e-02	hsa-miR-1255a	
hsa-miR-1255b	0.332	0.266694	-1.17	-4.8	-6.15e-02	hsa-miR-1255b	
hsa-miR-1256	0.332	0.266694	-1.17	-4.8	-6.15e-02	hsa-miR-1256	
hsa-miR-1257	0.332	0.266694	-1.17	-4.8	-6.15e-02	hsa-miR-1257	
hsa-miR-1258	0.332	0.266694	-1.17	-4.8	-6.15e-02	hsa-miR-1258	
hsa-miR-125b-1*	0.332	0.266694	-1.17	-4.8	-6.15e-02	hsa-miR-125b-1*	
hsa-miR-1261	0.332	0.266694	-1.17	-4.8	-6.15e-02	hsa-miR-1261	
hsa-miR-1262	0.332	0.266694	-1.17	-4.8	-6.15e-02	hsa-miR-1262	
hsa-miR-1263	0.332	0.266694	-1.17	-4.8	-6.15e-02	hsa-miR-1263	
hsa-miR-1264	0.332	0.266694	-1.17	-4.8	-6.15e-02	hsa-miR-1264	
hsa-miR-1265	0.332	0.266694	-1.17	-4.8	-6.15e-02	hsa-miR-1265	
hsa-miR-1266	0.332	0.266694	-1.17	-4.8	-6.15e-02	hsa-miR-1266	
hsa-miR-1267	0.332	0.266694	-1.17	-4.8	-6.15e-02	hsa-miR-1267	
hsa-miR-1269	0.332	0.266694	-1.17	-4.8	-6.15e-02	hsa-miR-1269	
hsa-miR-127-5p	0.332	0.266694	-1.17	-4.8	-6.15e-02	hsa-miR-127-5p	
hsa-miR-1270	0.332	0.266694	-1.17	-4.8	-6.15e-02	hsa-miR-1270	
hsa-miR-1272	0.332	0.266694	-1.17	-4.8	-6.15e-02	hsa-miR-1272	
hsa-miR-1273	0.332	0.266694	-1.17	-4.8	-6.15e-02	hsa-miR-1273	
hsa-miR-1273c	0.332	0.266694	-1.17	-4.8	-6.15e-02	hsa-miR-1273c	
hsa-miR-1276	0.332	0.266694	-1.17	-4.8	-6.15e-02	hsa-miR-1276	
hsa-miR-1277	0.332	0.266694	-1.17	-4.8	-6.15e-02	hsa-miR-1277	
hsa-miR-1278	0.332	0.266694	-1.17	-4.8	-6.15e-02	hsa-miR-1278	
hsa-miR-1279	0.332	0.266694	-1.17	-4.8	-6.15e-02	hsa-miR-1279	
hsa-miR-1281	0.332	0.266694	-1.17	-4.8	-6.15e-02	hsa-miR-1281	
hsa-miR-1282	0.332	0.266694	-1.17	-4.8	-6.15e-02	hsa-miR-1282	
hsa-miR-1283	0.332	0.266694	-1.17	-4.8	-6.15e-02	hsa-miR-1283	
hsa-miR-1284	0.332	0.266694	-1.17	-4.8	-6.15e-02	hsa-miR-1284	
hsa-miR-1285	0.332	0.266694	-1.17	-4.8	-6.15e-02	hsa-miR-1285	
hsa-miR-1286	0.332	0.266694	-1.17	-4.8	-6.15e-02	hsa-miR-1286	
hsa-miR-1287	0.332	0.266694	-1.17	-4.8	-6.15e-02	hsa-miR-1287	
hsa-miR-1288	0.332	0.266694	-1.17	-4.8	-6.15e-02	hsa-miR-1288	
hsa-miR-1289	0.332	0.266694	-1.17	-4.8	-6.15e-02	hsa-miR-1289	
hsa-miR-129-3p	0.332	0.266694	-1.17	-4.8	-6.15e-02	hsa-miR-129-3p	
hsa-miR-129-5p	0.332	0.266694	-1.17	-4.8	-6.15e-02	hsa-miR-129-5p	
hsa-miR-1291	0.332	0.266694	-1.17	-4.8	-6.15e-02	hsa-miR-1291	
hsa-miR-1292	0.332	0.266694	-1.17	-4.8	-6.15e-02	hsa-miR-1292	
hsa-miR-1293	0.332	0.266694	-1.17	-4.8	-6.15e-02	hsa-miR-1293	
hsa-miR-1294	0.332	0.266694	-1.17	-4.8	-6.15e-02	hsa-miR-1294	
hsa-miR-1295	0.332	0.266694	-1.17	-4.8	-6.15e-02	hsa-miR-1295	
hsa-miR-1296	0.332	0.266694	-1.17	-4.8	-6.15e-02	hsa-miR-1296	
hsa-miR-1297	0.332	0.266694	-1.17	-4.8	-6.15e-02	hsa-miR-1297	
hsa-miR-1298	0.332	0.266694	-1.17	-4.8	-6.15e-02	hsa-miR-1298	
hsa-miR-1299	0.332	0.266694	-1.17	-4.8	-6.15e-02	hsa-miR-1299	
hsa-miR-1301	0.332	0.266694	-1.17	-4.8	-6.15e-02	hsa-miR-1301	
hsa-miR-1302	0.332	0.266694	-1.17	-4.8	-6.15e-02	hsa-miR-1302	
hsa-miR-1303	0.332	0.266694	-1.17	-4.8	-6.15e-02	hsa-miR-1303	
hsa-miR-1304	0.332	0.266694	-1.17	-4.8	-6.15e-02	hsa-miR-1304	
hsa-miR-1306	0.332	0.266694	-1.17	-4.8	-6.15e-02	hsa-miR-1306	
hsa-miR-1307	0.332	0.266694	-1.17	-4.8	-6.15e-02	hsa-miR-1307	
hsa-miR-130a*	0.332	0.266694	-1.17	-4.8	-6.15e-02	hsa-miR-130a*	
hsa-miR-130b*	0.332	0.266694	-1.17	-4.8	-6.15e-02	hsa-miR-130b*	
hsa-miR-1321	0.332	0.266694	-1.17	-4.8	-6.15e-02	hsa-miR-1321	
hsa-miR-1322	0.332	0.266694	-1.17	-4.8	-6.15e-02	hsa-miR-1322	
hsa-miR-1323	0.332	0.266694	-1.17	-4.8	-6.15e-02	hsa-miR-1323	
hsa-miR-1324	0.332	0.266694	-1.17	-4.8	-6.15e-02	hsa-miR-1324	
hsa-miR-133a	0.332	0.266694	-1.17	-4.8	-6.15e-02	hsa-miR-133a	
hsa-miR-135a	0.332	0.266694	-1.17	-4.8	-6.15e-02	hsa-miR-135a	
hsa-miR-135b*	0.332	0.266694	-1.17	-4.8	-6.15e-02	hsa-miR-135b*	
hsa-miR-136*	0.332	0.266694	-1.17	-4.8	-6.15e-02	hsa-miR-136*	
hsa-miR-138	0.332	0.266694	-1.17	-4.8	-6.15e-02	hsa-miR-138	
hsa-miR-138-1*	0.332	0.266694	-1.17	-4.8	-6.15e-02	hsa-miR-138-1*	
hsa-miR-138-2*	0.332	0.266694	-1.17	-4.8	-6.15e-02	hsa-miR-138-2*	
hsa-miR-139-3p	0.332	0.266694	-1.17	-4.8	-6.15e-02	hsa-miR-139-3p	
hsa-miR-141*	0.332	0.266694	-1.17	-4.8	-6.15e-02	hsa-miR-141*	
hsa-miR-143*	0.332	0.266694	-1.17	-4.8	-6.15e-02	hsa-miR-143*	
hsa-miR-1468	0.332	0.266694	-1.17	-4.8	-6.15e-02	hsa-miR-1468	
hsa-miR-146a*	0.332	0.266694	-1.17	-4.8	-6.15e-02	hsa-miR-146a*	
hsa-miR-146b-3p	0.332	0.266694	-1.17	-4.8	-6.15e-02	hsa-miR-146b-3p	
hsa-miR-147	0.332	0.266694	-1.17	-4.8	-6.15e-02	hsa-miR-147	
hsa-miR-1470	0.332	0.266694	-1.17	-4.8	-6.15e-02	hsa-miR-1470	
hsa-miR-147b	0.332	0.266694	-1.17	-4.8	-6.15e-02	hsa-miR-147b	
hsa-miR-148a*	0.332	0.266694	-1.17	-4.8	-6.15e-02	hsa-miR-148a*	
hsa-miR-148b*	0.332	0.266694	-1.17	-4.8	-6.15e-02	hsa-miR-148b*	
hsa-miR-149*	0.332	0.266694	-1.17	-4.8	-6.15e-02	hsa-miR-149*	
hsa-miR-153	0.332	0.266694	-1.17	-4.8	-6.15e-02	hsa-miR-153	
hsa-miR-1537	0.332	0.266694	-1.17	-4.8	-6.15e-02	hsa-miR-1537	
hsa-miR-1538	0.332	0.266694	-1.17	-4.8	-6.15e-02	hsa-miR-1538	
hsa-miR-1539	0.332	0.266694	-1.17	-4.8	-6.15e-02	hsa-miR-1539	
hsa-miR-154*	0.332	0.266694	-1.17	-4.8	-6.15e-02	hsa-miR-154*	
hsa-miR-155*	0.332	0.266694	-1.17	-4.8	-6.15e-02	hsa-miR-155*	
hsa-miR-15a*	0.332	0.266694	-1.17	-4.8	-6.15e-02	hsa-miR-15a*	
hsa-miR-15b*	0.332	0.266694	-1.17	-4.8	-6.15e-02	hsa-miR-15b*	
hsa-miR-16-1*	0.332	0.266694	-1.17	-4.8	-6.15e-02	hsa-miR-16-1*	
hsa-miR-16-2*	0.332	0.266694	-1.17	-4.8	-6.15e-02	hsa-miR-16-2*	
hsa-miR-181c*	0.332	0.266694	-1.17	-4.8	-6.15e-02	hsa-miR-181c*	
hsa-miR-182	0.332	0.266694	-1.17	-4.8	-6.15e-02	hsa-miR-182	
hsa-miR-182*	0.332	0.266694	-1.17	-4.8	-6.15e-02	hsa-miR-182*	
hsa-miR-1825	0.332	0.266694	-1.17	-4.8	-6.15e-02	hsa-miR-1825	
hsa-miR-1827	0.332	0.266694	-1.17	-4.8	-6.15e-02	hsa-miR-1827	
hsa-miR-183*	0.332	0.266694	-1.17	-4.8	-6.15e-02	hsa-miR-183*	
hsa-miR-184	0.332	0.266694	-1.17	-4.8	-6.15e-02	hsa-miR-184	
hsa-miR-185*	0.332	0.266694	-1.17	-4.8	-6.15e-02	hsa-miR-185*	
hsa-miR-186*	0.332	0.266694	-1.17	-4.8	-6.15e-02	hsa-miR-186*	
hsa-miR-187	0.332	0.266694	-1.17	-4.8	-6.15e-02	hsa-miR-187	
hsa-miR-187*	0.332	0.266694	-1.17	-4.8	-6.15e-02	hsa-miR-187*	
hsa-miR-188-3p	0.332	0.266694	-1.17	-4.8	-6.15e-02	hsa-miR-188-3p	
hsa-miR-18a*	0.332	0.266694	-1.17	-4.8	-6.15e-02	hsa-miR-18a*	
hsa-miR-18b*	0.332	0.266694	-1.17	-4.8	-6.15e-02	hsa-miR-18b*	
hsa-miR-190	0.332	0.266694	-1.17	-4.8	-6.15e-02	hsa-miR-190	
hsa-miR-1908	0.332	0.266694	-1.17	-4.8	-6.15e-02	hsa-miR-1908	
hsa-miR-1909	0.332	0.266694	-1.17	-4.8	-6.15e-02	hsa-miR-1909	
hsa-miR-1909*	0.332	0.266694	-1.17	-4.8	-6.15e-02	hsa-miR-1909*	
hsa-miR-190b	0.332	0.266694	-1.17	-4.8	-6.15e-02	hsa-miR-190b	
hsa-miR-191	0.332	0.266694	-1.17	-4.8	-6.15e-02	hsa-miR-191	
hsa-miR-191*	0.332	0.266694	-1.17	-4.8	-6.15e-02	hsa-miR-191*	
hsa-miR-1910	0.332	0.266694	-1.17	-4.8	-6.15e-02	hsa-miR-1910	
hsa-miR-1911	0.332	0.266694	-1.17	-4.8	-6.15e-02	hsa-miR-1911	
hsa-miR-1911*	0.332	0.266694	-1.17	-4.8	-6.15e-02	hsa-miR-1911*	
hsa-miR-1912	0.332	0.266694	-1.17	-4.8	-6.15e-02	hsa-miR-1912	
hsa-miR-1913	0.332	0.266694	-1.17	-4.8	-6.15e-02	hsa-miR-1913	
hsa-miR-1914	0.332	0.266694	-1.17	-4.8	-6.15e-02	hsa-miR-1914	
hsa-miR-1915*	0.332	0.266694	-1.17	-4.8	-6.15e-02	hsa-miR-1915*	
hsa-miR-192*	0.332	0.266694	-1.17	-4.8	-6.15e-02	hsa-miR-192*	
hsa-miR-193b*	0.332	0.266694	-1.17	-4.8	-6.15e-02	hsa-miR-193b*	
hsa-miR-194	0.332	0.266694	-1.17	-4.8	-6.15e-02	hsa-miR-194	
hsa-miR-194*	0.332	0.266694	-1.17	-4.8	-6.15e-02	hsa-miR-194*	
hsa-miR-195*	0.332	0.266694	-1.17	-4.8	-6.15e-02	hsa-miR-195*	
hsa-miR-196a*	0.332	0.266694	-1.17	-4.8	-6.15e-02	hsa-miR-196a*	
hsa-miR-196b*	0.332	0.266694	-1.17	-4.8	-6.15e-02	hsa-miR-196b*	
hsa-miR-1976	0.332	0.266694	-1.17	-4.8	-6.15e-02	hsa-miR-1976	
hsa-miR-19a*	0.332	0.266694	-1.17	-4.8	-6.15e-02	hsa-miR-19a*	
hsa-miR-19b-2*	0.332	0.266694	-1.17	-4.8	-6.15e-02	hsa-miR-19b-2*	
hsa-miR-200a*	0.332	0.266694	-1.17	-4.8	-6.15e-02	hsa-miR-200a*	
hsa-miR-200b*	0.332	0.266694	-1.17	-4.8	-6.15e-02	hsa-miR-200b*	
hsa-miR-200c*	0.332	0.266694	-1.17	-4.8	-6.15e-02	hsa-miR-200c*	
hsa-miR-202*	0.332	0.266694	-1.17	-4.8	-6.15e-02	hsa-miR-202*	
hsa-miR-205*	0.332	0.266694	-1.17	-4.8	-6.15e-02	hsa-miR-205*	
hsa-miR-2052	0.332	0.266694	-1.17	-4.8	-6.15e-02	hsa-miR-2052	
hsa-miR-2053	0.332	0.266694	-1.17	-4.8	-6.15e-02	hsa-miR-2053	
hsa-miR-206	0.332	0.266694	-1.17	-4.8	-6.15e-02	hsa-miR-206	
hsa-miR-208a	0.332	0.266694	-1.17	-4.8	-6.15e-02	hsa-miR-208a	
hsa-miR-208b	0.332	0.266694	-1.17	-4.8	-6.15e-02	hsa-miR-208b	
hsa-miR-20b*	0.332	0.266694	-1.17	-4.8	-6.15e-02	hsa-miR-20b*	
hsa-miR-2110	0.332	0.266694	-1.17	-4.8	-6.15e-02	hsa-miR-2110	
hsa-miR-2113	0.332	0.266694	-1.17	-4.8	-6.15e-02	hsa-miR-2113	
hsa-miR-2114	0.332	0.266694	-1.17	-4.8	-6.15e-02	hsa-miR-2114	
hsa-miR-2114*	0.332	0.266694	-1.17	-4.8	-6.15e-02	hsa-miR-2114*	
hsa-miR-2115	0.332	0.266694	-1.17	-4.8	-6.15e-02	hsa-miR-2115	
hsa-miR-2115*	0.332	0.266694	-1.17	-4.8	-6.15e-02	hsa-miR-2115*	
hsa-miR-2116	0.332	0.266694	-1.17	-4.8	-6.15e-02	hsa-miR-2116	
hsa-miR-2116*	0.332	0.266694	-1.17	-4.8	-6.15e-02	hsa-miR-2116*	
hsa-miR-2117	0.332	0.266694	-1.17	-4.8	-6.15e-02	hsa-miR-2117	
hsa-miR-215	0.332	0.266694	-1.17	-4.8	-6.15e-02	hsa-miR-215	
hsa-miR-216a	0.332	0.266694	-1.17	-4.8	-6.15e-02	hsa-miR-216a	
hsa-miR-216b	0.332	0.266694	-1.17	-4.8	-6.15e-02	hsa-miR-216b	
hsa-miR-217	0.332	0.266694	-1.17	-4.8	-6.15e-02	hsa-miR-217	
hsa-miR-218-1*	0.332	0.266694	-1.17	-4.8	-6.15e-02	hsa-miR-218-1*	
hsa-miR-218-2*	0.332	0.266694	-1.17	-4.8	-6.15e-02	hsa-miR-218-2*	
hsa-miR-219-1-3p	0.332	0.266694	-1.17	-4.8	-6.15e-02	hsa-miR-219-1-3p	
hsa-miR-219-2-3p	0.332	0.266694	-1.17	-4.8	-6.15e-02	hsa-miR-219-2-3p	
hsa-miR-219-5p	0.332	0.266694	-1.17	-4.8	-6.15e-02	hsa-miR-219-5p	
hsa-miR-222*	0.332	0.266694	-1.17	-4.8	-6.15e-02	hsa-miR-222*	
hsa-miR-224*	0.332	0.266694	-1.17	-4.8	-6.15e-02	hsa-miR-224*	
hsa-miR-2277-3p	0.332	0.266694	-1.17	-4.8	-6.15e-02	hsa-miR-2277-3p	
hsa-miR-2277-5p	0.332	0.266694	-1.17	-4.8	-6.15e-02	hsa-miR-2277-5p	
hsa-miR-2355-3p	0.332	0.266694	-1.17	-4.8	-6.15e-02	hsa-miR-2355-3p	
hsa-miR-2355-5p	0.332	0.266694	-1.17	-4.8	-6.15e-02	hsa-miR-2355-5p	
hsa-miR-23a*	0.332	0.266694	-1.17	-4.8	-6.15e-02	hsa-miR-23a*	
hsa-miR-23c	0.332	0.266694	-1.17	-4.8	-6.15e-02	hsa-miR-23c	
hsa-miR-24-2*	0.332	0.266694	-1.17	-4.8	-6.15e-02	hsa-miR-24-2*	
hsa-miR-25*	0.332	0.266694	-1.17	-4.8	-6.15e-02	hsa-miR-25*	
hsa-miR-26a-1*	0.332	0.266694	-1.17	-4.8	-6.15e-02	hsa-miR-26a-1*	
hsa-miR-26a-2*	0.332	0.266694	-1.17	-4.8	-6.15e-02	hsa-miR-26a-2*	
hsa-miR-26b*	0.332	0.266694	-1.17	-4.8	-6.15e-02	hsa-miR-26b*	
hsa-miR-27a*	0.332	0.266694	-1.17	-4.8	-6.15e-02	hsa-miR-27a*	
hsa-miR-27b*	0.332	0.266694	-1.17	-4.8	-6.15e-02	hsa-miR-27b*	
hsa-miR-28-3p	0.332	0.266694	-1.17	-4.8	-6.15e-02	hsa-miR-28-3p	
hsa-miR-2909	0.332	0.266694	-1.17	-4.8	-6.15e-02	hsa-miR-2909	
hsa-miR-296-3p	0.332	0.266694	-1.17	-4.8	-6.15e-02	hsa-miR-296-3p	
hsa-miR-297	0.332	0.266694	-1.17	-4.8	-6.15e-02	hsa-miR-297	
hsa-miR-298	0.332	0.266694	-1.17	-4.8	-6.15e-02	hsa-miR-298	
hsa-miR-299-3p	0.332	0.266694	-1.17	-4.8	-6.15e-02	hsa-miR-299-3p	
hsa-miR-29a*	0.332	0.266694	-1.17	-4.8	-6.15e-02	hsa-miR-29a*	
hsa-miR-29b-2*	0.332	0.266694	-1.17	-4.8	-6.15e-02	hsa-miR-29b-2*	
hsa-miR-300	0.332	0.266694	-1.17	-4.8	-6.15e-02	hsa-miR-300	
hsa-miR-302a	0.332	0.266694	-1.17	-4.8	-6.15e-02	hsa-miR-302a	
hsa-miR-302a*	0.332	0.266694	-1.17	-4.8	-6.15e-02	hsa-miR-302a*	
hsa-miR-302b	0.332	0.266694	-1.17	-4.8	-6.15e-02	hsa-miR-302b	
hsa-miR-302b*	0.332	0.266694	-1.17	-4.8	-6.15e-02	hsa-miR-302b*	
hsa-miR-302c	0.332	0.266694	-1.17	-4.8	-6.15e-02	hsa-miR-302c	
hsa-miR-302c*	0.332	0.266694	-1.17	-4.8	-6.15e-02	hsa-miR-302c*	
hsa-miR-302d	0.332	0.266694	-1.17	-4.8	-6.15e-02	hsa-miR-302d	
hsa-miR-302d*	0.332	0.266694	-1.17	-4.8	-6.15e-02	hsa-miR-302d*	
hsa-miR-302e	0.332	0.266694	-1.17	-4.8	-6.15e-02	hsa-miR-302e	
hsa-miR-302f	0.332	0.266694	-1.17	-4.8	-6.15e-02	hsa-miR-302f	
hsa-miR-3065-3p	0.332	0.266694	-1.17	-4.8	-6.15e-02	hsa-miR-3065-3p	
hsa-miR-3065-5p	0.332	0.266694	-1.17	-4.8	-6.15e-02	hsa-miR-3065-5p	
hsa-miR-3074-3p	0.332	0.266694	-1.17	-4.8	-6.15e-02	hsa-miR-3074-3p	
hsa-miR-30c-2*	0.332	0.266694	-1.17	-4.8	-6.15e-02	hsa-miR-30c-2*	
hsa-miR-3115	0.332	0.266694	-1.17	-4.8	-6.15e-02	hsa-miR-3115	
hsa-miR-3116	0.332	0.266694	-1.17	-4.8	-6.15e-02	hsa-miR-3116	
hsa-miR-3117-3p	0.332	0.266694	-1.17	-4.8	-6.15e-02	hsa-miR-3117-3p	
hsa-miR-3118	0.332	0.266694	-1.17	-4.8	-6.15e-02	hsa-miR-3118	
hsa-miR-3119	0.332	0.266694	-1.17	-4.8	-6.15e-02	hsa-miR-3119	
hsa-miR-3120-3p	0.332	0.266694	-1.17	-4.8	-6.15e-02	hsa-miR-3120-3p	
hsa-miR-3121-3p	0.332	0.266694	-1.17	-4.8	-6.15e-02	hsa-miR-3121-3p	
hsa-miR-3122	0.332	0.266694	-1.17	-4.8	-6.15e-02	hsa-miR-3122	
hsa-miR-3123	0.332	0.266694	-1.17	-4.8	-6.15e-02	hsa-miR-3123	
hsa-miR-3124-5p	0.332	0.266694	-1.17	-4.8	-6.15e-02	hsa-miR-3124-5p	
hsa-miR-3126-3p	0.332	0.266694	-1.17	-4.8	-6.15e-02	hsa-miR-3126-3p	
hsa-miR-3126-5p	0.332	0.266694	-1.17	-4.8	-6.15e-02	hsa-miR-3126-5p	
hsa-miR-3127-5p	0.332	0.266694	-1.17	-4.8	-6.15e-02	hsa-miR-3127-5p	
hsa-miR-3128	0.332	0.266694	-1.17	-4.8	-6.15e-02	hsa-miR-3128	
hsa-miR-3129-5p	0.332	0.266694	-1.17	-4.8	-6.15e-02	hsa-miR-3129-5p	
hsa-miR-3130-3p	0.332	0.266694	-1.17	-4.8	-6.15e-02	hsa-miR-3130-3p	
hsa-miR-3130-5p	0.332	0.266694	-1.17	-4.8	-6.15e-02	hsa-miR-3130-5p	
hsa-miR-3133	0.332	0.266694	-1.17	-4.8	-6.15e-02	hsa-miR-3133	
hsa-miR-3134	0.332	0.266694	-1.17	-4.8	-6.15e-02	hsa-miR-3134	
hsa-miR-3135	0.332	0.266694	-1.17	-4.8	-6.15e-02	hsa-miR-3135	
hsa-miR-3136-5p	0.332	0.266694	-1.17	-4.8	-6.15e-02	hsa-miR-3136-5p	
hsa-miR-3139	0.332	0.266694	-1.17	-4.8	-6.15e-02	hsa-miR-3139	
hsa-miR-3140-3p	0.332	0.266694	-1.17	-4.8	-6.15e-02	hsa-miR-3140-3p	
hsa-miR-3142	0.332	0.266694	-1.17	-4.8	-6.15e-02	hsa-miR-3142	
hsa-miR-3143	0.332	0.266694	-1.17	-4.8	-6.15e-02	hsa-miR-3143	
hsa-miR-3144-3p	0.332	0.266694	-1.17	-4.8	-6.15e-02	hsa-miR-3144-3p	
hsa-miR-3144-5p	0.332	0.266694	-1.17	-4.8	-6.15e-02	hsa-miR-3144-5p	
hsa-miR-3145-3p	0.332	0.266694	-1.17	-4.8	-6.15e-02	hsa-miR-3145-3p	
hsa-miR-3146	0.332	0.266694	-1.17	-4.8	-6.15e-02	hsa-miR-3146	
hsa-miR-3147	0.332	0.266694	-1.17	-4.8	-6.15e-02	hsa-miR-3147	
hsa-miR-3148	0.332	0.266694	-1.17	-4.8	-6.15e-02	hsa-miR-3148	
hsa-miR-3150a-3p	0.332	0.266694	-1.17	-4.8	-6.15e-02	hsa-miR-3150a-3p	
hsa-miR-3150b-3p	0.332	0.266694	-1.17	-4.8	-6.15e-02	hsa-miR-3150b-3p	
hsa-miR-3151	0.332	0.266694	-1.17	-4.8	-6.15e-02	hsa-miR-3151	
hsa-miR-3152-3p	0.332	0.266694	-1.17	-4.8	-6.15e-02	hsa-miR-3152-3p	
hsa-miR-3153	0.332	0.266694	-1.17	-4.8	-6.15e-02	hsa-miR-3153	
hsa-miR-3155	0.332	0.266694	-1.17	-4.8	-6.15e-02	hsa-miR-3155	
hsa-miR-3157-5p	0.332	0.266694	-1.17	-4.8	-6.15e-02	hsa-miR-3157-5p	
hsa-miR-3158-3p	0.332	0.266694	-1.17	-4.8	-6.15e-02	hsa-miR-3158-3p	
hsa-miR-3159	0.332	0.266694	-1.17	-4.8	-6.15e-02	hsa-miR-3159	
hsa-miR-3160-3p	0.332	0.266694	-1.17	-4.8	-6.15e-02	hsa-miR-3160-3p	
hsa-miR-3161	0.332	0.266694	-1.17	-4.8	-6.15e-02	hsa-miR-3161	
hsa-miR-3163	0.332	0.266694	-1.17	-4.8	-6.15e-02	hsa-miR-3163	
hsa-miR-3164	0.332	0.266694	-1.17	-4.8	-6.15e-02	hsa-miR-3164	
hsa-miR-3165	0.332	0.266694	-1.17	-4.8	-6.15e-02	hsa-miR-3165	
hsa-miR-3166	0.332	0.266694	-1.17	-4.8	-6.15e-02	hsa-miR-3166	
hsa-miR-3167	0.332	0.266694	-1.17	-4.8	-6.15e-02	hsa-miR-3167	
hsa-miR-3168	0.332	0.266694	-1.17	-4.8	-6.15e-02	hsa-miR-3168	
hsa-miR-3169	0.332	0.266694	-1.17	-4.8	-6.15e-02	hsa-miR-3169	
hsa-miR-3170	0.332	0.266694	-1.17	-4.8	-6.15e-02	hsa-miR-3170	
hsa-miR-3171	0.332	0.266694	-1.17	-4.8	-6.15e-02	hsa-miR-3171	
hsa-miR-3173-3p	0.332	0.266694	-1.17	-4.8	-6.15e-02	hsa-miR-3173-3p	
hsa-miR-3174	0.332	0.266694	-1.17	-4.8	-6.15e-02	hsa-miR-3174	
hsa-miR-3175	0.332	0.266694	-1.17	-4.8	-6.15e-02	hsa-miR-3175	
hsa-miR-3176	0.332	0.266694	-1.17	-4.8	-6.15e-02	hsa-miR-3176	
hsa-miR-3177-3p	0.332	0.266694	-1.17	-4.8	-6.15e-02	hsa-miR-3177-3p	
hsa-miR-3178	0.332	0.266694	-1.17	-4.8	-6.15e-02	hsa-miR-3178	
hsa-miR-3179	0.332	0.266694	-1.17	-4.8	-6.15e-02	hsa-miR-3179	
hsa-miR-3180	0.332	0.266694	-1.17	-4.8	-6.15e-02	hsa-miR-3180	
hsa-miR-3180-3p	0.332	0.266694	-1.17	-4.8	-6.15e-02	hsa-miR-3180-3p	
hsa-miR-3180-5p	0.332	0.266694	-1.17	-4.8	-6.15e-02	hsa-miR-3180-5p	
hsa-miR-3181	0.332	0.266694	-1.17	-4.8	-6.15e-02	hsa-miR-3181	
hsa-miR-3182	0.332	0.266694	-1.17	-4.8	-6.15e-02	hsa-miR-3182	
hsa-miR-3183	0.332	0.266694	-1.17	-4.8	-6.15e-02	hsa-miR-3183	
hsa-miR-3184	0.332	0.266694	-1.17	-4.8	-6.15e-02	hsa-miR-3184	
hsa-miR-3185	0.332	0.266694	-1.17	-4.8	-6.15e-02	hsa-miR-3185	
hsa-miR-3186-3p	0.332	0.266694	-1.17	-4.8	-6.15e-02	hsa-miR-3186-3p	
hsa-miR-3186-5p	0.332	0.266694	-1.17	-4.8	-6.15e-02	hsa-miR-3186-5p	
hsa-miR-3187-3p	0.332	0.266694	-1.17	-4.8	-6.15e-02	hsa-miR-3187-3p	
hsa-miR-3189-3p	0.332	0.266694	-1.17	-4.8	-6.15e-02	hsa-miR-3189-3p	
hsa-miR-3190	0.332	0.266694	-1.17	-4.8	-6.15e-02	hsa-miR-3190	
hsa-miR-3191	0.332	0.266694	-1.17	-4.8	-6.15e-02	hsa-miR-3191	
hsa-miR-3192	0.332	0.266694	-1.17	-4.8	-6.15e-02	hsa-miR-3192	
hsa-miR-3193	0.332	0.266694	-1.17	-4.8	-6.15e-02	hsa-miR-3193	
hsa-miR-3197	0.332	0.266694	-1.17	-4.8	-6.15e-02	hsa-miR-3197	
hsa-miR-3199	0.332	0.266694	-1.17	-4.8	-6.15e-02	hsa-miR-3199	
hsa-miR-32	0.332	0.266694	-1.17	-4.8	-6.15e-02	hsa-miR-32	
hsa-miR-3200-3p	0.332	0.266694	-1.17	-4.8	-6.15e-02	hsa-miR-3200-3p	
hsa-miR-3200-5p	0.332	0.266694	-1.17	-4.8	-6.15e-02	hsa-miR-3200-5p	
hsa-miR-3201	0.332	0.266694	-1.17	-4.8	-6.15e-02	hsa-miR-3201	
hsa-miR-3202	0.332	0.266694	-1.17	-4.8	-6.15e-02	hsa-miR-3202	
hsa-miR-323-3p	0.332	0.266694	-1.17	-4.8	-6.15e-02	hsa-miR-323-3p	
hsa-miR-323-5p	0.332	0.266694	-1.17	-4.8	-6.15e-02	hsa-miR-323-5p	
hsa-miR-323b-3p	0.332	0.266694	-1.17	-4.8	-6.15e-02	hsa-miR-323b-3p	
hsa-miR-323b-5p	0.332	0.266694	-1.17	-4.8	-6.15e-02	hsa-miR-323b-5p	
hsa-miR-325	0.332	0.266694	-1.17	-4.8	-6.15e-02	hsa-miR-325	
hsa-miR-326	0.332	0.266694	-1.17	-4.8	-6.15e-02	hsa-miR-326	
hsa-miR-328	0.332	0.266694	-1.17	-4.8	-6.15e-02	hsa-miR-328	
hsa-miR-329	0.332	0.266694	-1.17	-4.8	-6.15e-02	hsa-miR-329	
hsa-miR-330-5p	0.332	0.266694	-1.17	-4.8	-6.15e-02	hsa-miR-330-5p	
hsa-miR-331-5p	0.332	0.266694	-1.17	-4.8	-6.15e-02	hsa-miR-331-5p	
hsa-miR-335*	0.332	0.266694	-1.17	-4.8	-6.15e-02	hsa-miR-335*	
hsa-miR-337-3p	0.332	0.266694	-1.17	-4.8	-6.15e-02	hsa-miR-337-3p	
hsa-miR-337-5p	0.332	0.266694	-1.17	-4.8	-6.15e-02	hsa-miR-337-5p	
hsa-miR-338-5p	0.332	0.266694	-1.17	-4.8	-6.15e-02	hsa-miR-338-5p	
hsa-miR-339-3p	0.332	0.266694	-1.17	-4.8	-6.15e-02	hsa-miR-339-3p	
hsa-miR-339-5p	0.332	0.266694	-1.17	-4.8	-6.15e-02	hsa-miR-339-5p	
hsa-miR-33a*	0.332	0.266694	-1.17	-4.8	-6.15e-02	hsa-miR-33a*	
hsa-miR-33b	0.332	0.266694	-1.17	-4.8	-6.15e-02	hsa-miR-33b	
hsa-miR-33b*	0.332	0.266694	-1.17	-4.8	-6.15e-02	hsa-miR-33b*	
hsa-miR-345	0.332	0.266694	-1.17	-4.8	-6.15e-02	hsa-miR-345	
hsa-miR-346	0.332	0.266694	-1.17	-4.8	-6.15e-02	hsa-miR-346	
hsa-miR-34a*	0.332	0.266694	-1.17	-4.8	-6.15e-02	hsa-miR-34a*	
hsa-miR-34c-3p	0.332	0.266694	-1.17	-4.8	-6.15e-02	hsa-miR-34c-3p	
hsa-miR-3605-3p	0.332	0.266694	-1.17	-4.8	-6.15e-02	hsa-miR-3605-3p	
hsa-miR-3605-5p	0.332	0.266694	-1.17	-4.8	-6.15e-02	hsa-miR-3605-5p	
hsa-miR-3606	0.332	0.266694	-1.17	-4.8	-6.15e-02	hsa-miR-3606	
hsa-miR-3607-3p	0.332	0.266694	-1.17	-4.8	-6.15e-02	hsa-miR-3607-3p	
hsa-miR-3607-5p	0.332	0.266694	-1.17	-4.8	-6.15e-02	hsa-miR-3607-5p	
hsa-miR-3609	0.332	0.266694	-1.17	-4.8	-6.15e-02	hsa-miR-3609	
hsa-miR-3611	0.332	0.266694	-1.17	-4.8	-6.15e-02	hsa-miR-3611	
hsa-miR-3612	0.332	0.266694	-1.17	-4.8	-6.15e-02	hsa-miR-3612	
hsa-miR-3613-3p	0.332	0.266694	-1.17	-4.8	-6.15e-02	hsa-miR-3613-3p	
hsa-miR-3613-5p	0.332	0.266694	-1.17	-4.8	-6.15e-02	hsa-miR-3613-5p	
hsa-miR-3614-3p	0.332	0.266694	-1.17	-4.8	-6.15e-02	hsa-miR-3614-3p	
hsa-miR-3614-5p	0.332	0.266694	-1.17	-4.8	-6.15e-02	hsa-miR-3614-5p	
hsa-miR-3615	0.332	0.266694	-1.17	-4.8	-6.15e-02	hsa-miR-3615	
hsa-miR-3616-3p	0.332	0.266694	-1.17	-4.8	-6.15e-02	hsa-miR-3616-3p	
hsa-miR-3616-5p	0.332	0.266694	-1.17	-4.8	-6.15e-02	hsa-miR-3616-5p	
hsa-miR-3617	0.332	0.266694	-1.17	-4.8	-6.15e-02	hsa-miR-3617	
hsa-miR-3618	0.332	0.266694	-1.17	-4.8	-6.15e-02	hsa-miR-3618	
hsa-miR-3619-5p	0.332	0.266694	-1.17	-4.8	-6.15e-02	hsa-miR-3619-5p	
hsa-miR-3620	0.332	0.266694	-1.17	-4.8	-6.15e-02	hsa-miR-3620	
hsa-miR-3621	0.332	0.266694	-1.17	-4.8	-6.15e-02	hsa-miR-3621	
hsa-miR-3622a-3p	0.332	0.266694	-1.17	-4.8	-6.15e-02	hsa-miR-3622a-3p	
hsa-miR-3622a-5p	0.332	0.266694	-1.17	-4.8	-6.15e-02	hsa-miR-3622a-5p	
hsa-miR-3622b-3p	0.332	0.266694	-1.17	-4.8	-6.15e-02	hsa-miR-3622b-3p	
hsa-miR-3622b-5p	0.332	0.266694	-1.17	-4.8	-6.15e-02	hsa-miR-3622b-5p	
hsa-miR-363*	0.332	0.266694	-1.17	-4.8	-6.15e-02	hsa-miR-363*	
hsa-miR-3647-3p	0.332	0.266694	-1.17	-4.8	-6.15e-02	hsa-miR-3647-3p	
hsa-miR-3647-5p	0.332	0.266694	-1.17	-4.8	-6.15e-02	hsa-miR-3647-5p	
hsa-miR-3649	0.332	0.266694	-1.17	-4.8	-6.15e-02	hsa-miR-3649	
hsa-miR-365*	0.332	0.266694	-1.17	-4.8	-6.15e-02	hsa-miR-365*	
hsa-miR-3650	0.332	0.266694	-1.17	-4.8	-6.15e-02	hsa-miR-3650	
hsa-miR-3654	0.332	0.266694	-1.17	-4.8	-6.15e-02	hsa-miR-3654	
hsa-miR-3655	0.332	0.266694	-1.17	-4.8	-6.15e-02	hsa-miR-3655	
hsa-miR-3657	0.332	0.266694	-1.17	-4.8	-6.15e-02	hsa-miR-3657	
hsa-miR-3658	0.332	0.266694	-1.17	-4.8	-6.15e-02	hsa-miR-3658	
hsa-miR-3659	0.332	0.266694	-1.17	-4.8	-6.15e-02	hsa-miR-3659	
hsa-miR-3660	0.332	0.266694	-1.17	-4.8	-6.15e-02	hsa-miR-3660	
hsa-miR-3661	0.332	0.266694	-1.17	-4.8	-6.15e-02	hsa-miR-3661	
hsa-miR-3662	0.332	0.266694	-1.17	-4.8	-6.15e-02	hsa-miR-3662	
hsa-miR-3664-5p	0.332	0.266694	-1.17	-4.8	-6.15e-02	hsa-miR-3664-5p	
hsa-miR-3666	0.332	0.266694	-1.17	-4.8	-6.15e-02	hsa-miR-3666	
hsa-miR-3667-3p	0.332	0.266694	-1.17	-4.8	-6.15e-02	hsa-miR-3667-3p	
hsa-miR-3668	0.332	0.266694	-1.17	-4.8	-6.15e-02	hsa-miR-3668	
hsa-miR-3669	0.332	0.266694	-1.17	-4.8	-6.15e-02	hsa-miR-3669	
hsa-miR-367	0.332	0.266694	-1.17	-4.8	-6.15e-02	hsa-miR-367	
hsa-miR-367*	0.332	0.266694	-1.17	-4.8	-6.15e-02	hsa-miR-367*	
hsa-miR-3670	0.332	0.266694	-1.17	-4.8	-6.15e-02	hsa-miR-3670	
hsa-miR-3671	0.332	0.266694	-1.17	-4.8	-6.15e-02	hsa-miR-3671	
hsa-miR-3672	0.332	0.266694	-1.17	-4.8	-6.15e-02	hsa-miR-3672	
hsa-miR-3673	0.332	0.266694	-1.17	-4.8	-6.15e-02	hsa-miR-3673	
hsa-miR-3674	0.332	0.266694	-1.17	-4.8	-6.15e-02	hsa-miR-3674	
hsa-miR-3675-3p	0.332	0.266694	-1.17	-4.8	-6.15e-02	hsa-miR-3675-3p	
hsa-miR-3675-5p	0.332	0.266694	-1.17	-4.8	-6.15e-02	hsa-miR-3675-5p	
hsa-miR-3676	0.332	0.266694	-1.17	-4.8	-6.15e-02	hsa-miR-3676	
hsa-miR-3677-3p	0.332	0.266694	-1.17	-4.8	-6.15e-02	hsa-miR-3677-3p	
hsa-miR-3678-3p	0.332	0.266694	-1.17	-4.8	-6.15e-02	hsa-miR-3678-3p	
hsa-miR-3678-5p	0.332	0.266694	-1.17	-4.8	-6.15e-02	hsa-miR-3678-5p	
hsa-miR-3679-3p	0.332	0.266694	-1.17	-4.8	-6.15e-02	hsa-miR-3679-3p	
hsa-miR-3680	0.332	0.266694	-1.17	-4.8	-6.15e-02	hsa-miR-3680	
hsa-miR-3680*	0.332	0.266694	-1.17	-4.8	-6.15e-02	hsa-miR-3680*	
hsa-miR-3681	0.332	0.266694	-1.17	-4.8	-6.15e-02	hsa-miR-3681	
hsa-miR-3681*	0.332	0.266694	-1.17	-4.8	-6.15e-02	hsa-miR-3681*	
hsa-miR-3683	0.332	0.266694	-1.17	-4.8	-6.15e-02	hsa-miR-3683	
hsa-miR-3684	0.332	0.266694	-1.17	-4.8	-6.15e-02	hsa-miR-3684	
hsa-miR-3685	0.332	0.266694	-1.17	-4.8	-6.15e-02	hsa-miR-3685	
hsa-miR-3686	0.332	0.266694	-1.17	-4.8	-6.15e-02	hsa-miR-3686	
hsa-miR-3687	0.332	0.266694	-1.17	-4.8	-6.15e-02	hsa-miR-3687	
hsa-miR-3688-3p	0.332	0.266694	-1.17	-4.8	-6.15e-02	hsa-miR-3688-3p	
hsa-miR-3689a-3p	0.332	0.266694	-1.17	-4.8	-6.15e-02	hsa-miR-3689a-3p	
hsa-miR-3689a-5p	0.332	0.266694	-1.17	-4.8	-6.15e-02	hsa-miR-3689a-5p	
hsa-miR-3689b*	0.332	0.266694	-1.17	-4.8	-6.15e-02	hsa-miR-3689b*	
hsa-miR-369-3p	0.332	0.266694	-1.17	-4.8	-6.15e-02	hsa-miR-369-3p	
hsa-miR-369-5p	0.332	0.266694	-1.17	-4.8	-6.15e-02	hsa-miR-369-5p	
hsa-miR-3690	0.332	0.266694	-1.17	-4.8	-6.15e-02	hsa-miR-3690	
hsa-miR-3691-5p	0.332	0.266694	-1.17	-4.8	-6.15e-02	hsa-miR-3691-5p	
hsa-miR-3692	0.332	0.266694	-1.17	-4.8	-6.15e-02	hsa-miR-3692	
hsa-miR-3692*	0.332	0.266694	-1.17	-4.8	-6.15e-02	hsa-miR-3692*	
hsa-miR-371-3p	0.332	0.266694	-1.17	-4.8	-6.15e-02	hsa-miR-371-3p	
hsa-miR-3713	0.332	0.266694	-1.17	-4.8	-6.15e-02	hsa-miR-3713	
hsa-miR-3714	0.332	0.266694	-1.17	-4.8	-6.15e-02	hsa-miR-3714	
hsa-miR-372	0.332	0.266694	-1.17	-4.8	-6.15e-02	hsa-miR-372	
hsa-miR-373	0.332	0.266694	-1.17	-4.8	-6.15e-02	hsa-miR-373	
hsa-miR-374a*	0.332	0.266694	-1.17	-4.8	-6.15e-02	hsa-miR-374a*	
hsa-miR-374b*	0.332	0.266694	-1.17	-4.8	-6.15e-02	hsa-miR-374b*	
hsa-miR-374c	0.332	0.266694	-1.17	-4.8	-6.15e-02	hsa-miR-374c	
hsa-miR-375	0.332	0.266694	-1.17	-4.8	-6.15e-02	hsa-miR-375	
hsa-miR-376a*	0.332	0.266694	-1.17	-4.8	-6.15e-02	hsa-miR-376a*	
hsa-miR-376b	0.332	0.266694	-1.17	-4.8	-6.15e-02	hsa-miR-376b	
hsa-miR-377*	0.332	0.266694	-1.17	-4.8	-6.15e-02	hsa-miR-377*	
hsa-miR-378c	0.332	0.266694	-1.17	-4.8	-6.15e-02	hsa-miR-378c	
hsa-miR-379*	0.332	0.266694	-1.17	-4.8	-6.15e-02	hsa-miR-379*	
hsa-miR-380	0.332	0.266694	-1.17	-4.8	-6.15e-02	hsa-miR-380	
hsa-miR-380*	0.332	0.266694	-1.17	-4.8	-6.15e-02	hsa-miR-380*	
hsa-miR-383	0.332	0.266694	-1.17	-4.8	-6.15e-02	hsa-miR-383	
hsa-miR-384	0.332	0.266694	-1.17	-4.8	-6.15e-02	hsa-miR-384	
hsa-miR-3908	0.332	0.266694	-1.17	-4.8	-6.15e-02	hsa-miR-3908	
hsa-miR-3909	0.332	0.266694	-1.17	-4.8	-6.15e-02	hsa-miR-3909	
hsa-miR-3910	0.332	0.266694	-1.17	-4.8	-6.15e-02	hsa-miR-3910	
hsa-miR-3912	0.332	0.266694	-1.17	-4.8	-6.15e-02	hsa-miR-3912	
hsa-miR-3913-5p	0.332	0.266694	-1.17	-4.8	-6.15e-02	hsa-miR-3913-5p	
hsa-miR-3914	0.332	0.266694	-1.17	-4.8	-6.15e-02	hsa-miR-3914	
hsa-miR-3915	0.332	0.266694	-1.17	-4.8	-6.15e-02	hsa-miR-3915	
hsa-miR-3916	0.332	0.266694	-1.17	-4.8	-6.15e-02	hsa-miR-3916	
hsa-miR-3918	0.332	0.266694	-1.17	-4.8	-6.15e-02	hsa-miR-3918	
hsa-miR-3919	0.332	0.266694	-1.17	-4.8	-6.15e-02	hsa-miR-3919	
hsa-miR-3920	0.332	0.266694	-1.17	-4.8	-6.15e-02	hsa-miR-3920	
hsa-miR-3921	0.332	0.266694	-1.17	-4.8	-6.15e-02	hsa-miR-3921	
hsa-miR-3922-3p	0.332	0.266694	-1.17	-4.8	-6.15e-02	hsa-miR-3922-3p	
hsa-miR-3924	0.332	0.266694	-1.17	-4.8	-6.15e-02	hsa-miR-3924	
hsa-miR-3925-5p	0.332	0.266694	-1.17	-4.8	-6.15e-02	hsa-miR-3925-5p	
hsa-miR-3927	0.332	0.266694	-1.17	-4.8	-6.15e-02	hsa-miR-3927	
hsa-miR-3928	0.332	0.266694	-1.17	-4.8	-6.15e-02	hsa-miR-3928	
hsa-miR-3929	0.332	0.266694	-1.17	-4.8	-6.15e-02	hsa-miR-3929	
hsa-miR-3935	0.332	0.266694	-1.17	-4.8	-6.15e-02	hsa-miR-3935	
hsa-miR-3936	0.332	0.266694	-1.17	-4.8	-6.15e-02	hsa-miR-3936	
hsa-miR-3938	0.332	0.266694	-1.17	-4.8	-6.15e-02	hsa-miR-3938	
hsa-miR-3939	0.332	0.266694	-1.17	-4.8	-6.15e-02	hsa-miR-3939	
hsa-miR-3940-3p	0.332	0.266694	-1.17	-4.8	-6.15e-02	hsa-miR-3940-3p	
hsa-miR-3941	0.332	0.266694	-1.17	-4.8	-6.15e-02	hsa-miR-3941	
hsa-miR-3942-5p	0.332	0.266694	-1.17	-4.8	-6.15e-02	hsa-miR-3942-5p	
hsa-miR-3943	0.332	0.266694	-1.17	-4.8	-6.15e-02	hsa-miR-3943	
hsa-miR-3944-3p	0.332	0.266694	-1.17	-4.8	-6.15e-02	hsa-miR-3944-3p	
hsa-miR-409-5p	0.332	0.266694	-1.17	-4.8	-6.15e-02	hsa-miR-409-5p	
hsa-miR-411	0.332	0.266694	-1.17	-4.8	-6.15e-02	hsa-miR-411	
hsa-miR-411*	0.332	0.266694	-1.17	-4.8	-6.15e-02	hsa-miR-411*	
hsa-miR-412	0.332	0.266694	-1.17	-4.8	-6.15e-02	hsa-miR-412	
hsa-miR-421	0.332	0.266694	-1.17	-4.8	-6.15e-02	hsa-miR-421	
hsa-miR-422a	0.332	0.266694	-1.17	-4.8	-6.15e-02	hsa-miR-422a	
hsa-miR-423-3p	0.332	0.266694	-1.17	-4.8	-6.15e-02	hsa-miR-423-3p	
hsa-miR-425*	0.332	0.266694	-1.17	-4.8	-6.15e-02	hsa-miR-425*	
hsa-miR-4251	0.332	0.266694	-1.17	-4.8	-6.15e-02	hsa-miR-4251	
hsa-miR-4252	0.332	0.266694	-1.17	-4.8	-6.15e-02	hsa-miR-4252	
hsa-miR-4253	0.332	0.266694	-1.17	-4.8	-6.15e-02	hsa-miR-4253	
hsa-miR-4254	0.332	0.266694	-1.17	-4.8	-6.15e-02	hsa-miR-4254	
hsa-miR-4255	0.332	0.266694	-1.17	-4.8	-6.15e-02	hsa-miR-4255	
hsa-miR-4256	0.332	0.266694	-1.17	-4.8	-6.15e-02	hsa-miR-4256	
hsa-miR-4258	0.332	0.266694	-1.17	-4.8	-6.15e-02	hsa-miR-4258	
hsa-miR-4259	0.332	0.266694	-1.17	-4.8	-6.15e-02	hsa-miR-4259	
hsa-miR-4260	0.332	0.266694	-1.17	-4.8	-6.15e-02	hsa-miR-4260	
hsa-miR-4261	0.332	0.266694	-1.17	-4.8	-6.15e-02	hsa-miR-4261	
hsa-miR-4262	0.332	0.266694	-1.17	-4.8	-6.15e-02	hsa-miR-4262	
hsa-miR-4263	0.332	0.266694	-1.17	-4.8	-6.15e-02	hsa-miR-4263	
hsa-miR-4264	0.332	0.266694	-1.17	-4.8	-6.15e-02	hsa-miR-4264	
hsa-miR-4265	0.332	0.266694	-1.17	-4.8	-6.15e-02	hsa-miR-4265	
hsa-miR-4266	0.332	0.266694	-1.17	-4.8	-6.15e-02	hsa-miR-4266	
hsa-miR-4267	0.332	0.266694	-1.17	-4.8	-6.15e-02	hsa-miR-4267	
hsa-miR-4268	0.332	0.266694	-1.17	-4.8	-6.15e-02	hsa-miR-4268	
hsa-miR-4269	0.332	0.266694	-1.17	-4.8	-6.15e-02	hsa-miR-4269	
hsa-miR-4272	0.332	0.266694	-1.17	-4.8	-6.15e-02	hsa-miR-4272	
hsa-miR-4273	0.332	0.266694	-1.17	-4.8	-6.15e-02	hsa-miR-4273	
hsa-miR-4274	0.332	0.266694	-1.17	-4.8	-6.15e-02	hsa-miR-4274	
hsa-miR-4275	0.332	0.266694	-1.17	-4.8	-6.15e-02	hsa-miR-4275	
hsa-miR-4276	0.332	0.266694	-1.17	-4.8	-6.15e-02	hsa-miR-4276	
hsa-miR-4277	0.332	0.266694	-1.17	-4.8	-6.15e-02	hsa-miR-4277	
hsa-miR-4278	0.332	0.266694	-1.17	-4.8	-6.15e-02	hsa-miR-4278	
hsa-miR-4279	0.332	0.266694	-1.17	-4.8	-6.15e-02	hsa-miR-4279	
hsa-miR-4280	0.332	0.266694	-1.17	-4.8	-6.15e-02	hsa-miR-4280	
hsa-miR-4282	0.332	0.266694	-1.17	-4.8	-6.15e-02	hsa-miR-4282	
hsa-miR-4283	0.332	0.266694	-1.17	-4.8	-6.15e-02	hsa-miR-4283	
hsa-miR-4285	0.332	0.266694	-1.17	-4.8	-6.15e-02	hsa-miR-4285	
hsa-miR-4287	0.332	0.266694	-1.17	-4.8	-6.15e-02	hsa-miR-4287	
hsa-miR-4288	0.332	0.266694	-1.17	-4.8	-6.15e-02	hsa-miR-4288	
hsa-miR-4289	0.332	0.266694	-1.17	-4.8	-6.15e-02	hsa-miR-4289	
hsa-miR-429	0.332	0.266694	-1.17	-4.8	-6.15e-02	hsa-miR-429	
hsa-miR-4290	0.332	0.266694	-1.17	-4.8	-6.15e-02	hsa-miR-4290	
hsa-miR-4292	0.332	0.266694	-1.17	-4.8	-6.15e-02	hsa-miR-4292	
hsa-miR-4293	0.332	0.266694	-1.17	-4.8	-6.15e-02	hsa-miR-4293	
hsa-miR-4294	0.332	0.266694	-1.17	-4.8	-6.15e-02	hsa-miR-4294	
hsa-miR-4295	0.332	0.266694	-1.17	-4.8	-6.15e-02	hsa-miR-4295	
hsa-miR-4296	0.332	0.266694	-1.17	-4.8	-6.15e-02	hsa-miR-4296	
hsa-miR-4297	0.332	0.266694	-1.17	-4.8	-6.15e-02	hsa-miR-4297	
hsa-miR-4300	0.332	0.266694	-1.17	-4.8	-6.15e-02	hsa-miR-4300	
hsa-miR-4301	0.332	0.266694	-1.17	-4.8	-6.15e-02	hsa-miR-4301	
hsa-miR-4302	0.332	0.266694	-1.17	-4.8	-6.15e-02	hsa-miR-4302	
hsa-miR-4303	0.332	0.266694	-1.17	-4.8	-6.15e-02	hsa-miR-4303	
hsa-miR-4304	0.332	0.266694	-1.17	-4.8	-6.15e-02	hsa-miR-4304	
hsa-miR-4305	0.332	0.266694	-1.17	-4.8	-6.15e-02	hsa-miR-4305	
hsa-miR-4307	0.332	0.266694	-1.17	-4.8	-6.15e-02	hsa-miR-4307	
hsa-miR-4308	0.332	0.266694	-1.17	-4.8	-6.15e-02	hsa-miR-4308	
hsa-miR-4309	0.332	0.266694	-1.17	-4.8	-6.15e-02	hsa-miR-4309	
hsa-miR-431	0.332	0.266694	-1.17	-4.8	-6.15e-02	hsa-miR-431	
hsa-miR-431*	0.332	0.266694	-1.17	-4.8	-6.15e-02	hsa-miR-431*	
hsa-miR-4310	0.332	0.266694	-1.17	-4.8	-6.15e-02	hsa-miR-4310	
hsa-miR-4311	0.332	0.266694	-1.17	-4.8	-6.15e-02	hsa-miR-4311	
hsa-miR-4312	0.332	0.266694	-1.17	-4.8	-6.15e-02	hsa-miR-4312	
hsa-miR-4314	0.332	0.266694	-1.17	-4.8	-6.15e-02	hsa-miR-4314	
hsa-miR-4315	0.332	0.266694	-1.17	-4.8	-6.15e-02	hsa-miR-4315	
hsa-miR-4316	0.332	0.266694	-1.17	-4.8	-6.15e-02	hsa-miR-4316	
hsa-miR-4318	0.332	0.266694	-1.17	-4.8	-6.15e-02	hsa-miR-4318	
hsa-miR-4319	0.332	0.266694	-1.17	-4.8	-6.15e-02	hsa-miR-4319	
hsa-miR-432*	0.332	0.266694	-1.17	-4.8	-6.15e-02	hsa-miR-432*	
hsa-miR-4320	0.332	0.266694	-1.17	-4.8	-6.15e-02	hsa-miR-4320	
hsa-miR-4321	0.332	0.266694	-1.17	-4.8	-6.15e-02	hsa-miR-4321	
hsa-miR-4322	0.332	0.266694	-1.17	-4.8	-6.15e-02	hsa-miR-4322	
hsa-miR-4323	0.332	0.266694	-1.17	-4.8	-6.15e-02	hsa-miR-4323	
hsa-miR-4325	0.332	0.266694	-1.17	-4.8	-6.15e-02	hsa-miR-4325	
hsa-miR-4326	0.332	0.266694	-1.17	-4.8	-6.15e-02	hsa-miR-4326	
hsa-miR-4328	0.332	0.266694	-1.17	-4.8	-6.15e-02	hsa-miR-4328	
hsa-miR-4329	0.332	0.266694	-1.17	-4.8	-6.15e-02	hsa-miR-4329	
hsa-miR-433	0.332	0.266694	-1.17	-4.8	-6.15e-02	hsa-miR-433	
hsa-miR-4330	0.332	0.266694	-1.17	-4.8	-6.15e-02	hsa-miR-4330	
hsa-miR-448	0.332	0.266694	-1.17	-4.8	-6.15e-02	hsa-miR-448	
hsa-miR-449a	0.332	0.266694	-1.17	-4.8	-6.15e-02	hsa-miR-449a	
hsa-miR-449b	0.332	0.266694	-1.17	-4.8	-6.15e-02	hsa-miR-449b	
hsa-miR-449b*	0.332	0.266694	-1.17	-4.8	-6.15e-02	hsa-miR-449b*	
hsa-miR-449c	0.332	0.266694	-1.17	-4.8	-6.15e-02	hsa-miR-449c	
hsa-miR-449c*	0.332	0.266694	-1.17	-4.8	-6.15e-02	hsa-miR-449c*	
hsa-miR-450b-3p	0.332	0.266694	-1.17	-4.8	-6.15e-02	hsa-miR-450b-3p	
hsa-miR-450b-5p	0.332	0.266694	-1.17	-4.8	-6.15e-02	hsa-miR-450b-5p	
hsa-miR-452	0.332	0.266694	-1.17	-4.8	-6.15e-02	hsa-miR-452	
hsa-miR-452*	0.332	0.266694	-1.17	-4.8	-6.15e-02	hsa-miR-452*	
hsa-miR-454*	0.332	0.266694	-1.17	-4.8	-6.15e-02	hsa-miR-454*	
hsa-miR-466	0.332	0.266694	-1.17	-4.8	-6.15e-02	hsa-miR-466	
hsa-miR-483-3p	0.332	0.266694	-1.17	-4.8	-6.15e-02	hsa-miR-483-3p	
hsa-miR-485-3p	0.332	0.266694	-1.17	-4.8	-6.15e-02	hsa-miR-485-3p	
hsa-miR-485-5p	0.332	0.266694	-1.17	-4.8	-6.15e-02	hsa-miR-485-5p	
hsa-miR-486-3p	0.332	0.266694	-1.17	-4.8	-6.15e-02	hsa-miR-486-3p	
hsa-miR-487a	0.332	0.266694	-1.17	-4.8	-6.15e-02	hsa-miR-487a	
hsa-miR-488	0.332	0.266694	-1.17	-4.8	-6.15e-02	hsa-miR-488	
hsa-miR-488*	0.332	0.266694	-1.17	-4.8	-6.15e-02	hsa-miR-488*	
hsa-miR-489	0.332	0.266694	-1.17	-4.8	-6.15e-02	hsa-miR-489	
hsa-miR-490-3p	0.332	0.266694	-1.17	-4.8	-6.15e-02	hsa-miR-490-3p	
hsa-miR-490-5p	0.332	0.266694	-1.17	-4.8	-6.15e-02	hsa-miR-490-5p	
hsa-miR-491-3p	0.332	0.266694	-1.17	-4.8	-6.15e-02	hsa-miR-491-3p	
hsa-miR-491-5p	0.332	0.266694	-1.17	-4.8	-6.15e-02	hsa-miR-491-5p	
hsa-miR-492	0.332	0.266694	-1.17	-4.8	-6.15e-02	hsa-miR-492	
hsa-miR-493	0.332	0.266694	-1.17	-4.8	-6.15e-02	hsa-miR-493	
hsa-miR-493*	0.332	0.266694	-1.17	-4.8	-6.15e-02	hsa-miR-493*	
hsa-miR-495	0.332	0.266694	-1.17	-4.8	-6.15e-02	hsa-miR-495	
hsa-miR-496	0.332	0.266694	-1.17	-4.8	-6.15e-02	hsa-miR-496	
hsa-miR-497*	0.332	0.266694	-1.17	-4.8	-6.15e-02	hsa-miR-497*	
hsa-miR-498	0.332	0.266694	-1.17	-4.8	-6.15e-02	hsa-miR-498	
hsa-miR-499-3p	0.332	0.266694	-1.17	-4.8	-6.15e-02	hsa-miR-499-3p	
hsa-miR-499-5p	0.332	0.266694	-1.17	-4.8	-6.15e-02	hsa-miR-499-5p	
hsa-miR-500a	0.332	0.266694	-1.17	-4.8	-6.15e-02	hsa-miR-500a	
hsa-miR-500b	0.332	0.266694	-1.17	-4.8	-6.15e-02	hsa-miR-500b	
hsa-miR-504	0.332	0.266694	-1.17	-4.8	-6.15e-02	hsa-miR-504	
hsa-miR-511	0.332	0.266694	-1.17	-4.8	-6.15e-02	hsa-miR-511	
hsa-miR-512-3p	0.332	0.266694	-1.17	-4.8	-6.15e-02	hsa-miR-512-3p	
hsa-miR-512-5p	0.332	0.266694	-1.17	-4.8	-6.15e-02	hsa-miR-512-5p	
hsa-miR-513a-3p	0.332	0.266694	-1.17	-4.8	-6.15e-02	hsa-miR-513a-3p	
hsa-miR-514b-3p	0.332	0.266694	-1.17	-4.8	-6.15e-02	hsa-miR-514b-3p	
hsa-miR-515-3p	0.332	0.266694	-1.17	-4.8	-6.15e-02	hsa-miR-515-3p	
hsa-miR-515-5p	0.332	0.266694	-1.17	-4.8	-6.15e-02	hsa-miR-515-5p	
hsa-miR-516a-3p	0.332	0.266694	-1.17	-4.8	-6.15e-02	hsa-miR-516a-3p	
hsa-miR-516b	0.332	0.266694	-1.17	-4.8	-6.15e-02	hsa-miR-516b	
hsa-miR-517*	0.332	0.266694	-1.17	-4.8	-6.15e-02	hsa-miR-517*	
hsa-miR-517a	0.332	0.266694	-1.17	-4.8	-6.15e-02	hsa-miR-517a	
hsa-miR-517b	0.332	0.266694	-1.17	-4.8	-6.15e-02	hsa-miR-517b	
hsa-miR-517c	0.332	0.266694	-1.17	-4.8	-6.15e-02	hsa-miR-517c	
hsa-miR-518a-3p	0.332	0.266694	-1.17	-4.8	-6.15e-02	hsa-miR-518a-3p	
hsa-miR-518a-5p	0.332	0.266694	-1.17	-4.8	-6.15e-02	hsa-miR-518a-5p	
hsa-miR-518b	0.332	0.266694	-1.17	-4.8	-6.15e-02	hsa-miR-518b	
hsa-miR-518c	0.332	0.266694	-1.17	-4.8	-6.15e-02	hsa-miR-518c	
hsa-miR-518c*	0.332	0.266694	-1.17	-4.8	-6.15e-02	hsa-miR-518c*	
hsa-miR-518d-3p	0.332	0.266694	-1.17	-4.8	-6.15e-02	hsa-miR-518d-3p	
hsa-miR-518e	0.332	0.266694	-1.17	-4.8	-6.15e-02	hsa-miR-518e	
hsa-miR-518e*	0.332	0.266694	-1.17	-4.8	-6.15e-02	hsa-miR-518e*	
hsa-miR-518f	0.332	0.266694	-1.17	-4.8	-6.15e-02	hsa-miR-518f	
hsa-miR-518f*	0.332	0.266694	-1.17	-4.8	-6.15e-02	hsa-miR-518f*	
hsa-miR-519b-3p	0.332	0.266694	-1.17	-4.8	-6.15e-02	hsa-miR-519b-3p	
hsa-miR-519c-3p	0.332	0.266694	-1.17	-4.8	-6.15e-02	hsa-miR-519c-3p	
hsa-miR-519d	0.332	0.266694	-1.17	-4.8	-6.15e-02	hsa-miR-519d	
hsa-miR-519e	0.332	0.266694	-1.17	-4.8	-6.15e-02	hsa-miR-519e	
hsa-miR-519e*	0.332	0.266694	-1.17	-4.8	-6.15e-02	hsa-miR-519e*	
hsa-miR-520a-3p	0.332	0.266694	-1.17	-4.8	-6.15e-02	hsa-miR-520a-3p	
hsa-miR-520a-5p	0.332	0.266694	-1.17	-4.8	-6.15e-02	hsa-miR-520a-5p	
hsa-miR-520b	0.332	0.266694	-1.17	-4.8	-6.15e-02	hsa-miR-520b	
hsa-miR-520c-3p	0.332	0.266694	-1.17	-4.8	-6.15e-02	hsa-miR-520c-3p	
hsa-miR-520d-3p	0.332	0.266694	-1.17	-4.8	-6.15e-02	hsa-miR-520d-3p	
hsa-miR-520e	0.332	0.266694	-1.17	-4.8	-6.15e-02	hsa-miR-520e	
hsa-miR-520f	0.332	0.266694	-1.17	-4.8	-6.15e-02	hsa-miR-520f	
hsa-miR-520g	0.332	0.266694	-1.17	-4.8	-6.15e-02	hsa-miR-520g	
hsa-miR-520h	0.332	0.266694	-1.17	-4.8	-6.15e-02	hsa-miR-520h	
hsa-miR-521	0.332	0.266694	-1.17	-4.8	-6.15e-02	hsa-miR-521	
hsa-miR-522	0.332	0.266694	-1.17	-4.8	-6.15e-02	hsa-miR-522	
hsa-miR-523	0.332	0.266694	-1.17	-4.8	-6.15e-02	hsa-miR-523	
hsa-miR-524-3p	0.332	0.266694	-1.17	-4.8	-6.15e-02	hsa-miR-524-3p	
hsa-miR-525-3p	0.332	0.266694	-1.17	-4.8	-6.15e-02	hsa-miR-525-3p	
hsa-miR-525-5p	0.332	0.266694	-1.17	-4.8	-6.15e-02	hsa-miR-525-5p	
hsa-miR-526b	0.332	0.266694	-1.17	-4.8	-6.15e-02	hsa-miR-526b	
hsa-miR-526b*	0.332	0.266694	-1.17	-4.8	-6.15e-02	hsa-miR-526b*	
hsa-miR-539	0.332	0.266694	-1.17	-4.8	-6.15e-02	hsa-miR-539	
hsa-miR-541	0.332	0.266694	-1.17	-4.8	-6.15e-02	hsa-miR-541	
hsa-miR-541*	0.332	0.266694	-1.17	-4.8	-6.15e-02	hsa-miR-541*	
hsa-miR-543	0.332	0.266694	-1.17	-4.8	-6.15e-02	hsa-miR-543	
hsa-miR-544	0.332	0.266694	-1.17	-4.8	-6.15e-02	hsa-miR-544	
hsa-miR-544b	0.332	0.266694	-1.17	-4.8	-6.15e-02	hsa-miR-544b	
hsa-miR-545	0.332	0.266694	-1.17	-4.8	-6.15e-02	hsa-miR-545	
hsa-miR-545*	0.332	0.266694	-1.17	-4.8	-6.15e-02	hsa-miR-545*	
hsa-miR-548a-3p	0.332	0.266694	-1.17	-4.8	-6.15e-02	hsa-miR-548a-3p	
hsa-miR-548a-5p	0.332	0.266694	-1.17	-4.8	-6.15e-02	hsa-miR-548a-5p	
hsa-miR-548aa	0.332	0.266694	-1.17	-4.8	-6.15e-02	hsa-miR-548aa	
hsa-miR-548b-3p	0.332	0.266694	-1.17	-4.8	-6.15e-02	hsa-miR-548b-3p	
hsa-miR-548b-5p	0.332	0.266694	-1.17	-4.8	-6.15e-02	hsa-miR-548b-5p	
hsa-miR-548c-3p	0.332	0.266694	-1.17	-4.8	-6.15e-02	hsa-miR-548c-3p	
hsa-miR-548c-5p	0.332	0.266694	-1.17	-4.8	-6.15e-02	hsa-miR-548c-5p	
hsa-miR-548d-3p	0.332	0.266694	-1.17	-4.8	-6.15e-02	hsa-miR-548d-3p	
hsa-miR-548d-5p	0.332	0.266694	-1.17	-4.8	-6.15e-02	hsa-miR-548d-5p	
hsa-miR-548e	0.332	0.266694	-1.17	-4.8	-6.15e-02	hsa-miR-548e	
hsa-miR-548f	0.332	0.266694	-1.17	-4.8	-6.15e-02	hsa-miR-548f	
hsa-miR-548g	0.332	0.266694	-1.17	-4.8	-6.15e-02	hsa-miR-548g	
hsa-miR-548h	0.332	0.266694	-1.17	-4.8	-6.15e-02	hsa-miR-548h	
hsa-miR-548i	0.332	0.266694	-1.17	-4.8	-6.15e-02	hsa-miR-548i	
hsa-miR-548j	0.332	0.266694	-1.17	-4.8	-6.15e-02	hsa-miR-548j	
hsa-miR-548k	0.332	0.266694	-1.17	-4.8	-6.15e-02	hsa-miR-548k	
hsa-miR-548l	0.332	0.266694	-1.17	-4.8	-6.15e-02	hsa-miR-548l	
hsa-miR-548m	0.332	0.266694	-1.17	-4.8	-6.15e-02	hsa-miR-548m	
hsa-miR-548n	0.332	0.266694	-1.17	-4.8	-6.15e-02	hsa-miR-548n	
hsa-miR-548o	0.332	0.266694	-1.17	-4.8	-6.15e-02	hsa-miR-548o	
hsa-miR-548p	0.332	0.266694	-1.17	-4.8	-6.15e-02	hsa-miR-548p	
hsa-miR-548q	0.332	0.266694	-1.17	-4.8	-6.15e-02	hsa-miR-548q	
hsa-miR-548s	0.332	0.266694	-1.17	-4.8	-6.15e-02	hsa-miR-548s	
hsa-miR-548t	0.332	0.266694	-1.17	-4.8	-6.15e-02	hsa-miR-548t	
hsa-miR-548u	0.332	0.266694	-1.17	-4.8	-6.15e-02	hsa-miR-548u	
hsa-miR-548v	0.332	0.266694	-1.17	-4.8	-6.15e-02	hsa-miR-548v	
hsa-miR-548w	0.332	0.266694	-1.17	-4.8	-6.15e-02	hsa-miR-548w	
hsa-miR-548x_v16.0	0.332	0.266694	-1.17	-4.8	-6.15e-02	hsa-miR-548x_v16.0	
hsa-miR-548y	0.332	0.266694	-1.17	-4.8	-6.15e-02	hsa-miR-548y	
hsa-miR-548z	0.332	0.266694	-1.17	-4.8	-6.15e-02	hsa-miR-548z	
hsa-miR-549	0.332	0.266694	-1.17	-4.8	-6.15e-02	hsa-miR-549	
hsa-miR-550a	0.332	0.266694	-1.17	-4.8	-6.15e-02	hsa-miR-550a	
hsa-miR-550a*	0.332	0.266694	-1.17	-4.8	-6.15e-02	hsa-miR-550a*	
hsa-miR-550b	0.332	0.266694	-1.17	-4.8	-6.15e-02	hsa-miR-550b	
hsa-miR-551a	0.332	0.266694	-1.17	-4.8	-6.15e-02	hsa-miR-551a	
hsa-miR-551b*	0.332	0.266694	-1.17	-4.8	-6.15e-02	hsa-miR-551b*	
hsa-miR-552	0.332	0.266694	-1.17	-4.8	-6.15e-02	hsa-miR-552	
hsa-miR-553	0.332	0.266694	-1.17	-4.8	-6.15e-02	hsa-miR-553	
hsa-miR-554	0.332	0.266694	-1.17	-4.8	-6.15e-02	hsa-miR-554	
hsa-miR-555	0.332	0.266694	-1.17	-4.8	-6.15e-02	hsa-miR-555	
hsa-miR-556-3p	0.332	0.266694	-1.17	-4.8	-6.15e-02	hsa-miR-556-3p	
hsa-miR-556-5p	0.332	0.266694	-1.17	-4.8	-6.15e-02	hsa-miR-556-5p	
hsa-miR-558	0.332	0.266694	-1.17	-4.8	-6.15e-02	hsa-miR-558	
hsa-miR-559	0.332	0.266694	-1.17	-4.8	-6.15e-02	hsa-miR-559	
hsa-miR-561	0.332	0.266694	-1.17	-4.8	-6.15e-02	hsa-miR-561	
hsa-miR-562	0.332	0.266694	-1.17	-4.8	-6.15e-02	hsa-miR-562	
hsa-miR-563	0.332	0.266694	-1.17	-4.8	-6.15e-02	hsa-miR-563	
hsa-miR-564	0.332	0.266694	-1.17	-4.8	-6.15e-02	hsa-miR-564	
hsa-miR-566	0.332	0.266694	-1.17	-4.8	-6.15e-02	hsa-miR-566	
hsa-miR-567	0.332	0.266694	-1.17	-4.8	-6.15e-02	hsa-miR-567	
hsa-miR-568	0.332	0.266694	-1.17	-4.8	-6.15e-02	hsa-miR-568	
hsa-miR-569	0.332	0.266694	-1.17	-4.8	-6.15e-02	hsa-miR-569	
hsa-miR-570	0.332	0.266694	-1.17	-4.8	-6.15e-02	hsa-miR-570	
hsa-miR-571	0.332	0.266694	-1.17	-4.8	-6.15e-02	hsa-miR-571	
hsa-miR-573	0.332	0.266694	-1.17	-4.8	-6.15e-02	hsa-miR-573	
hsa-miR-576-3p	0.332	0.266694	-1.17	-4.8	-6.15e-02	hsa-miR-576-3p	
hsa-miR-576-5p	0.332	0.266694	-1.17	-4.8	-6.15e-02	hsa-miR-576-5p	
hsa-miR-577	0.332	0.266694	-1.17	-4.8	-6.15e-02	hsa-miR-577	
hsa-miR-578	0.332	0.266694	-1.17	-4.8	-6.15e-02	hsa-miR-578	
hsa-miR-579	0.332	0.266694	-1.17	-4.8	-6.15e-02	hsa-miR-579	
hsa-miR-580	0.332	0.266694	-1.17	-4.8	-6.15e-02	hsa-miR-580	
hsa-miR-581	0.332	0.266694	-1.17	-4.8	-6.15e-02	hsa-miR-581	
hsa-miR-582-3p	0.332	0.266694	-1.17	-4.8	-6.15e-02	hsa-miR-582-3p	
hsa-miR-583	0.332	0.266694	-1.17	-4.8	-6.15e-02	hsa-miR-583	
hsa-miR-585	0.332	0.266694	-1.17	-4.8	-6.15e-02	hsa-miR-585	
hsa-miR-586	0.332	0.266694	-1.17	-4.8	-6.15e-02	hsa-miR-586	
hsa-miR-587	0.332	0.266694	-1.17	-4.8	-6.15e-02	hsa-miR-587	
hsa-miR-588	0.332	0.266694	-1.17	-4.8	-6.15e-02	hsa-miR-588	
hsa-miR-589	0.332	0.266694	-1.17	-4.8	-6.15e-02	hsa-miR-589	
hsa-miR-589*	0.332	0.266694	-1.17	-4.8	-6.15e-02	hsa-miR-589*	
hsa-miR-590-3p	0.332	0.266694	-1.17	-4.8	-6.15e-02	hsa-miR-590-3p	
hsa-miR-591	0.332	0.266694	-1.17	-4.8	-6.15e-02	hsa-miR-591	
hsa-miR-592	0.332	0.266694	-1.17	-4.8	-6.15e-02	hsa-miR-592	
hsa-miR-593	0.332	0.266694	-1.17	-4.8	-6.15e-02	hsa-miR-593	
hsa-miR-593*	0.332	0.266694	-1.17	-4.8	-6.15e-02	hsa-miR-593*	
hsa-miR-596	0.332	0.266694	-1.17	-4.8	-6.15e-02	hsa-miR-596	
hsa-miR-597	0.332	0.266694	-1.17	-4.8	-6.15e-02	hsa-miR-597	
hsa-miR-598	0.332	0.266694	-1.17	-4.8	-6.15e-02	hsa-miR-598	
hsa-miR-599	0.332	0.266694	-1.17	-4.8	-6.15e-02	hsa-miR-599	
hsa-miR-600	0.332	0.266694	-1.17	-4.8	-6.15e-02	hsa-miR-600	
hsa-miR-602	0.332	0.266694	-1.17	-4.8	-6.15e-02	hsa-miR-602	
hsa-miR-603	0.332	0.266694	-1.17	-4.8	-6.15e-02	hsa-miR-603	
hsa-miR-604	0.332	0.266694	-1.17	-4.8	-6.15e-02	hsa-miR-604	
hsa-miR-605	0.332	0.266694	-1.17	-4.8	-6.15e-02	hsa-miR-605	
hsa-miR-606	0.332	0.266694	-1.17	-4.8	-6.15e-02	hsa-miR-606	
hsa-miR-607	0.332	0.266694	-1.17	-4.8	-6.15e-02	hsa-miR-607	
hsa-miR-608	0.332	0.266694	-1.17	-4.8	-6.15e-02	hsa-miR-608	
hsa-miR-609	0.332	0.266694	-1.17	-4.8	-6.15e-02	hsa-miR-609	
hsa-miR-610	0.332	0.266694	-1.17	-4.8	-6.15e-02	hsa-miR-610	
hsa-miR-611	0.332	0.266694	-1.17	-4.8	-6.15e-02	hsa-miR-611	
hsa-miR-612	0.332	0.266694	-1.17	-4.8	-6.15e-02	hsa-miR-612	
hsa-miR-613	0.332	0.266694	-1.17	-4.8	-6.15e-02	hsa-miR-613	
hsa-miR-614	0.332	0.266694	-1.17	-4.8	-6.15e-02	hsa-miR-614	
hsa-miR-615-3p	0.332	0.266694	-1.17	-4.8	-6.15e-02	hsa-miR-615-3p	
hsa-miR-615-5p	0.332	0.266694	-1.17	-4.8	-6.15e-02	hsa-miR-615-5p	
hsa-miR-616	0.332	0.266694	-1.17	-4.8	-6.15e-02	hsa-miR-616	
hsa-miR-616*	0.332	0.266694	-1.17	-4.8	-6.15e-02	hsa-miR-616*	
hsa-miR-617	0.332	0.266694	-1.17	-4.8	-6.15e-02	hsa-miR-617	
hsa-miR-618	0.332	0.266694	-1.17	-4.8	-6.15e-02	hsa-miR-618	
hsa-miR-619	0.332	0.266694	-1.17	-4.8	-6.15e-02	hsa-miR-619	
hsa-miR-620	0.332	0.266694	-1.17	-4.8	-6.15e-02	hsa-miR-620	
hsa-miR-621	0.332	0.266694	-1.17	-4.8	-6.15e-02	hsa-miR-621	
hsa-miR-622	0.332	0.266694	-1.17	-4.8	-6.15e-02	hsa-miR-622	
hsa-miR-624	0.332	0.266694	-1.17	-4.8	-6.15e-02	hsa-miR-624	
hsa-miR-624*	0.332	0.266694	-1.17	-4.8	-6.15e-02	hsa-miR-624*	
hsa-miR-625*	0.332	0.266694	-1.17	-4.8	-6.15e-02	hsa-miR-625*	
hsa-miR-626	0.332	0.266694	-1.17	-4.8	-6.15e-02	hsa-miR-626	
hsa-miR-627	0.332	0.266694	-1.17	-4.8	-6.15e-02	hsa-miR-627	
hsa-miR-628-3p	0.332	0.266694	-1.17	-4.8	-6.15e-02	hsa-miR-628-3p	
hsa-miR-631	0.332	0.266694	-1.17	-4.8	-6.15e-02	hsa-miR-631	
hsa-miR-632	0.332	0.266694	-1.17	-4.8	-6.15e-02	hsa-miR-632	
hsa-miR-633	0.332	0.266694	-1.17	-4.8	-6.15e-02	hsa-miR-633	
hsa-miR-634	0.332	0.266694	-1.17	-4.8	-6.15e-02	hsa-miR-634	
hsa-miR-635	0.332	0.266694	-1.17	-4.8	-6.15e-02	hsa-miR-635	
hsa-miR-636	0.332	0.266694	-1.17	-4.8	-6.15e-02	hsa-miR-636	
hsa-miR-637	0.332	0.266694	-1.17	-4.8	-6.15e-02	hsa-miR-637	
hsa-miR-639	0.332	0.266694	-1.17	-4.8	-6.15e-02	hsa-miR-639	
hsa-miR-640	0.332	0.266694	-1.17	-4.8	-6.15e-02	hsa-miR-640	
hsa-miR-641	0.332	0.266694	-1.17	-4.8	-6.15e-02	hsa-miR-641	
hsa-miR-642a	0.332	0.266694	-1.17	-4.8	-6.15e-02	hsa-miR-642a	
hsa-miR-643	0.332	0.266694	-1.17	-4.8	-6.15e-02	hsa-miR-643	
hsa-miR-644	0.332	0.266694	-1.17	-4.8	-6.15e-02	hsa-miR-644	
hsa-miR-645	0.332	0.266694	-1.17	-4.8	-6.15e-02	hsa-miR-645	
hsa-miR-646	0.332	0.266694	-1.17	-4.8	-6.15e-02	hsa-miR-646	
hsa-miR-647	0.332	0.266694	-1.17	-4.8	-6.15e-02	hsa-miR-647	
hsa-miR-648	0.332	0.266694	-1.17	-4.8	-6.15e-02	hsa-miR-648	
hsa-miR-649	0.332	0.266694	-1.17	-4.8	-6.15e-02	hsa-miR-649	
hsa-miR-650	0.332	0.266694	-1.17	-4.8	-6.15e-02	hsa-miR-650	
hsa-miR-651	0.332	0.266694	-1.17	-4.8	-6.15e-02	hsa-miR-651	
hsa-miR-653	0.332	0.266694	-1.17	-4.8	-6.15e-02	hsa-miR-653	
hsa-miR-654-5p	0.332	0.266694	-1.17	-4.8	-6.15e-02	hsa-miR-654-5p	
hsa-miR-655	0.332	0.266694	-1.17	-4.8	-6.15e-02	hsa-miR-655	
hsa-miR-656	0.332	0.266694	-1.17	-4.8	-6.15e-02	hsa-miR-656	
hsa-miR-657	0.332	0.266694	-1.17	-4.8	-6.15e-02	hsa-miR-657	
hsa-miR-658	0.332	0.266694	-1.17	-4.8	-6.15e-02	hsa-miR-658	
hsa-miR-659	0.332	0.266694	-1.17	-4.8	-6.15e-02	hsa-miR-659	
hsa-miR-661	0.332	0.266694	-1.17	-4.8	-6.15e-02	hsa-miR-661	
hsa-miR-662	0.332	0.266694	-1.17	-4.8	-6.15e-02	hsa-miR-662	
hsa-miR-663b	0.332	0.266694	-1.17	-4.8	-6.15e-02	hsa-miR-663b	
hsa-miR-665	0.332	0.266694	-1.17	-4.8	-6.15e-02	hsa-miR-665	
hsa-miR-668	0.332	0.266694	-1.17	-4.8	-6.15e-02	hsa-miR-668	
hsa-miR-670	0.332	0.266694	-1.17	-4.8	-6.15e-02	hsa-miR-670	
hsa-miR-671-3p	0.332	0.266694	-1.17	-4.8	-6.15e-02	hsa-miR-671-3p	
hsa-miR-675	0.332	0.266694	-1.17	-4.8	-6.15e-02	hsa-miR-675	
hsa-miR-675*	0.332	0.266694	-1.17	-4.8	-6.15e-02	hsa-miR-675*	
hsa-miR-676	0.332	0.266694	-1.17	-4.8	-6.15e-02	hsa-miR-676	
hsa-miR-676*	0.332	0.266694	-1.17	-4.8	-6.15e-02	hsa-miR-676*	
hsa-miR-7-2*	0.332	0.266694	-1.17	-4.8	-6.15e-02	hsa-miR-7-2*	
hsa-miR-708	0.332	0.266694	-1.17	-4.8	-6.15e-02	hsa-miR-708	
hsa-miR-708*	0.332	0.266694	-1.17	-4.8	-6.15e-02	hsa-miR-708*	
hsa-miR-711	0.332	0.266694	-1.17	-4.8	-6.15e-02	hsa-miR-711	
hsa-miR-744*	0.332	0.266694	-1.17	-4.8	-6.15e-02	hsa-miR-744*	
hsa-miR-758	0.332	0.266694	-1.17	-4.8	-6.15e-02	hsa-miR-758	
hsa-miR-759	0.332	0.266694	-1.17	-4.8	-6.15e-02	hsa-miR-759	
hsa-miR-760	0.332	0.266694	-1.17	-4.8	-6.15e-02	hsa-miR-760	
hsa-miR-761	0.332	0.266694	-1.17	-4.8	-6.15e-02	hsa-miR-761	
hsa-miR-764	0.332	0.266694	-1.17	-4.8	-6.15e-02	hsa-miR-764	
hsa-miR-767-3p	0.332	0.266694	-1.17	-4.8	-6.15e-02	hsa-miR-767-3p	
hsa-miR-767-5p	0.332	0.266694	-1.17	-4.8	-6.15e-02	hsa-miR-767-5p	
hsa-miR-769-3p	0.332	0.266694	-1.17	-4.8	-6.15e-02	hsa-miR-769-3p	
hsa-miR-770-5p	0.332	0.266694	-1.17	-4.8	-6.15e-02	hsa-miR-770-5p	
hsa-miR-802	0.332	0.266694	-1.17	-4.8	-6.15e-02	hsa-miR-802	
hsa-miR-875-3p	0.332	0.266694	-1.17	-4.8	-6.15e-02	hsa-miR-875-3p	
hsa-miR-875-5p	0.332	0.266694	-1.17	-4.8	-6.15e-02	hsa-miR-875-5p	
hsa-miR-876-3p	0.332	0.266694	-1.17	-4.8	-6.15e-02	hsa-miR-876-3p	
hsa-miR-876-5p	0.332	0.266694	-1.17	-4.8	-6.15e-02	hsa-miR-876-5p	
hsa-miR-877	0.332	0.266694	-1.17	-4.8	-6.15e-02	hsa-miR-877	
hsa-miR-877*	0.332	0.266694	-1.17	-4.8	-6.15e-02	hsa-miR-877*	
hsa-miR-885-3p	0.332	0.266694	-1.17	-4.8	-6.15e-02	hsa-miR-885-3p	
hsa-miR-885-5p	0.332	0.266694	-1.17	-4.8	-6.15e-02	hsa-miR-885-5p	
hsa-miR-888	0.332	0.266694	-1.17	-4.8	-6.15e-02	hsa-miR-888	
hsa-miR-888*	0.332	0.266694	-1.17	-4.8	-6.15e-02	hsa-miR-888*	
hsa-miR-889	0.332	0.266694	-1.17	-4.8	-6.15e-02	hsa-miR-889	
hsa-miR-890	0.332	0.266694	-1.17	-4.8	-6.15e-02	hsa-miR-890	
hsa-miR-891a	0.332	0.266694	-1.17	-4.8	-6.15e-02	hsa-miR-891a	
hsa-miR-891b	0.332	0.266694	-1.17	-4.8	-6.15e-02	hsa-miR-891b	
hsa-miR-892a	0.332	0.266694	-1.17	-4.8	-6.15e-02	hsa-miR-892a	
hsa-miR-892b	0.332	0.266694	-1.17	-4.8	-6.15e-02	hsa-miR-892b	
hsa-miR-920	0.332	0.266694	-1.17	-4.8	-6.15e-02	hsa-miR-920	
hsa-miR-921	0.332	0.266694	-1.17	-4.8	-6.15e-02	hsa-miR-921	
hsa-miR-922	0.332	0.266694	-1.17	-4.8	-6.15e-02	hsa-miR-922	
hsa-miR-924	0.332	0.266694	-1.17	-4.8	-6.15e-02	hsa-miR-924	
hsa-miR-92a-1*	0.332	0.266694	-1.17	-4.8	-6.15e-02	hsa-miR-92a-1*	
hsa-miR-92a-2*	0.332	0.266694	-1.17	-4.8	-6.15e-02	hsa-miR-92a-2*	
hsa-miR-92b	0.332	0.266694	-1.17	-4.8	-6.15e-02	hsa-miR-92b	
hsa-miR-92b*	0.332	0.266694	-1.17	-4.8	-6.15e-02	hsa-miR-92b*	
hsa-miR-93*	0.332	0.266694	-1.17	-4.8	-6.15e-02	hsa-miR-93*	
hsa-miR-933	0.332	0.266694	-1.17	-4.8	-6.15e-02	hsa-miR-933	
hsa-miR-934	0.332	0.266694	-1.17	-4.8	-6.15e-02	hsa-miR-934	
hsa-miR-935	0.332	0.266694	-1.17	-4.8	-6.15e-02	hsa-miR-935	
hsa-miR-936	0.332	0.266694	-1.17	-4.8	-6.15e-02	hsa-miR-936	
hsa-miR-937	0.332	0.266694	-1.17	-4.8	-6.15e-02	hsa-miR-937	
hsa-miR-938	0.332	0.266694	-1.17	-4.8	-6.15e-02	hsa-miR-938	
hsa-miR-941	0.332	0.266694	-1.17	-4.8	-6.15e-02	hsa-miR-941	
hsa-miR-942	0.332	0.266694	-1.17	-4.8	-6.15e-02	hsa-miR-942	
hsa-miR-943	0.332	0.266694	-1.17	-4.8	-6.15e-02	hsa-miR-943	
hsa-miR-944	0.332	0.266694	-1.17	-4.8	-6.15e-02	hsa-miR-944	
hsa-miR-96*	0.332	0.266694	-1.17	-4.8	-6.15e-02	hsa-miR-96*	
hsa-miR-99a*	0.332	0.266694	-1.17	-4.8	-6.15e-02	hsa-miR-99a*	
hsa-miR-99b*	0.332	0.266694	-1.17	-4.8	-6.15e-02	hsa-miR-99b*	
hsv1-miR-H1*	0.332	0.266694	-1.17	-4.8	-6.15e-02	hsv1-miR-H1*	
hsv1-miR-H11	0.332	0.266694	-1.17	-4.8	-6.15e-02	hsv1-miR-H11	
hsv1-miR-H12	0.332	0.266694	-1.17	-4.8	-6.15e-02	hsv1-miR-H12	
hsv1-miR-H13	0.332	0.266694	-1.17	-4.8	-6.15e-02	hsv1-miR-H13	
hsv1-miR-H14-3p	0.332	0.266694	-1.17	-4.8	-6.15e-02	hsv1-miR-H14-3p	
hsv1-miR-H14-5p	0.332	0.266694	-1.17	-4.8	-6.15e-02	hsv1-miR-H14-5p	
hsv1-miR-H2	0.332	0.266694	-1.17	-4.8	-6.15e-02	hsv1-miR-H2	
hsv1-miR-H2*	0.332	0.266694	-1.17	-4.8	-6.15e-02	hsv1-miR-H2*	
hsv1-miR-H3	0.332	0.266694	-1.17	-4.8	-6.15e-02	hsv1-miR-H3	
hsv1-miR-H3*	0.332	0.266694	-1.17	-4.8	-6.15e-02	hsv1-miR-H3*	
hsv1-miR-H4	0.332	0.266694	-1.17	-4.8	-6.15e-02	hsv1-miR-H4	
hsv1-miR-H4*	0.332	0.266694	-1.17	-4.8	-6.15e-02	hsv1-miR-H4*	
hsv1-miR-H5-3p	0.332	0.266694	-1.17	-4.8	-6.15e-02	hsv1-miR-H5-3p	
hsv1-miR-H5-5p	0.332	0.266694	-1.17	-4.8	-6.15e-02	hsv1-miR-H5-5p	
hsv1-miR-H6-3p	0.332	0.266694	-1.17	-4.8	-6.15e-02	hsv1-miR-H6-3p	
hsv1-miR-H7	0.332	0.266694	-1.17	-4.8	-6.15e-02	hsv1-miR-H7	
hsv1-miR-H8*	0.332	0.266694	-1.17	-4.8	-6.15e-02	hsv1-miR-H8*	
hsv2-miR-H11*	0.332	0.266694	-1.17	-4.8	-6.15e-02	hsv2-miR-H11*	
hsv2-miR-H13	0.332	0.266694	-1.17	-4.8	-6.15e-02	hsv2-miR-H13	
hsv2-miR-H19	0.332	0.266694	-1.17	-4.8	-6.15e-02	hsv2-miR-H19	
hsv2-miR-H2	0.332	0.266694	-1.17	-4.8	-6.15e-02	hsv2-miR-H2	
hsv2-miR-H20	0.332	0.266694	-1.17	-4.8	-6.15e-02	hsv2-miR-H20	
hsv2-miR-H21	0.332	0.266694	-1.17	-4.8	-6.15e-02	hsv2-miR-H21	
hsv2-miR-H23	0.332	0.266694	-1.17	-4.8	-6.15e-02	hsv2-miR-H23	
hsv2-miR-H23*	0.332	0.266694	-1.17	-4.8	-6.15e-02	hsv2-miR-H23*	
hsv2-miR-H3	0.332	0.266694	-1.17	-4.8	-6.15e-02	hsv2-miR-H3	
hsv2-miR-H4-3p	0.332	0.266694	-1.17	-4.8	-6.15e-02	hsv2-miR-H4-3p	
hsv2-miR-H4-5p	0.332	0.266694	-1.17	-4.8	-6.15e-02	hsv2-miR-H4-5p	
hsv2-miR-H5	0.332	0.266694	-1.17	-4.8	-6.15e-02	hsv2-miR-H5	
hsv2-miR-H6*	0.332	0.266694	-1.17	-4.8	-6.15e-02	hsv2-miR-H6*	
hsv2-miR-H7-3p	0.332	0.266694	-1.17	-4.8	-6.15e-02	hsv2-miR-H7-3p	
hsv2-miR-H7-5p	0.332	0.266694	-1.17	-4.8	-6.15e-02	hsv2-miR-H7-5p	
hsv2-miR-H9-3p	0.332	0.266694	-1.17	-4.8	-6.15e-02	hsv2-miR-H9-3p	
hsv2-miR-H9-5p	0.332	0.266694	-1.17	-4.8	-6.15e-02	hsv2-miR-H9-5p	
jcv-miR-J1-5p	0.332	0.266694	-1.17	-4.8	-6.15e-02	jcv-miR-J1-5p	
kshv-miR-K12-1	0.332	0.266694	-1.17	-4.8	-6.15e-02	kshv-miR-K12-1	
kshv-miR-K12-1*	0.332	0.266694	-1.17	-4.8	-6.15e-02	kshv-miR-K12-1*	
kshv-miR-K12-10a*	0.332	0.266694	-1.17	-4.8	-6.15e-02	kshv-miR-K12-10a*	
kshv-miR-K12-11	0.332	0.266694	-1.17	-4.8	-6.15e-02	kshv-miR-K12-11	
kshv-miR-K12-11*	0.332	0.266694	-1.17	-4.8	-6.15e-02	kshv-miR-K12-11*	
kshv-miR-K12-12	0.332	0.266694	-1.17	-4.8	-6.15e-02	kshv-miR-K12-12	
kshv-miR-K12-12*	0.332	0.266694	-1.17	-4.8	-6.15e-02	kshv-miR-K12-12*	
kshv-miR-K12-2	0.332	0.266694	-1.17	-4.8	-6.15e-02	kshv-miR-K12-2	
kshv-miR-K12-2*	0.332	0.266694	-1.17	-4.8	-6.15e-02	kshv-miR-K12-2*	
kshv-miR-K12-3*	0.332	0.266694	-1.17	-4.8	-6.15e-02	kshv-miR-K12-3*	
kshv-miR-K12-4-3p	0.332	0.266694	-1.17	-4.8	-6.15e-02	kshv-miR-K12-4-3p	
kshv-miR-K12-4-5p	0.332	0.266694	-1.17	-4.8	-6.15e-02	kshv-miR-K12-4-5p	
kshv-miR-K12-5	0.332	0.266694	-1.17	-4.8	-6.15e-02	kshv-miR-K12-5	
kshv-miR-K12-5*	0.332	0.266694	-1.17	-4.8	-6.15e-02	kshv-miR-K12-5*	
kshv-miR-K12-6-3p	0.332	0.266694	-1.17	-4.8	-6.15e-02	kshv-miR-K12-6-3p	
kshv-miR-K12-6-5p	0.332	0.266694	-1.17	-4.8	-6.15e-02	kshv-miR-K12-6-5p	
kshv-miR-K12-7	0.332	0.266694	-1.17	-4.8	-6.15e-02	kshv-miR-K12-7	
kshv-miR-K12-7*	0.332	0.266694	-1.17	-4.8	-6.15e-02	kshv-miR-K12-7*	
kshv-miR-K12-8	0.332	0.266694	-1.17	-4.8	-6.15e-02	kshv-miR-K12-8	
kshv-miR-K12-8*	0.332	0.266694	-1.17	-4.8	-6.15e-02	kshv-miR-K12-8*	
kshv-miR-K12-9	0.332	0.266694	-1.17	-4.8	-6.15e-02	kshv-miR-K12-9	
kshv-miR-K12-9*	0.332	0.266694	-1.17	-4.8	-6.15e-02	kshv-miR-K12-9*	
NC1_00000197	0.332	0.266694	-1.17	-4.8	-6.15e-02		NC1_00000197
NC1_00000215	0.332	0.266694	-1.17	-4.8	-6.15e-02		NC1_00000215
NC2_00079215	0.332	0.266694	-1.17	-4.8	-6.15e-02		NC2_00079215
NC2_00092197	0.332	0.266694	-1.17	-4.8	-6.15e-02		NC2_00092197
NC2_00106057	0.332	0.266694	-1.17	-4.8	-6.15e-02		NC2_00106057
NC2_00122731	0.332	0.266694	-1.17	-4.8	-6.15e-02		NC2_00122731
NegativeControl	0.332	0.266694	-1.17	-4.8	-6.15e-02		NegativeControl
hsa-miR-139-5p	0.332	0.266998	-1.16	-4.8	-2.08	hsa-miR-139-5p	
hsa-miR-3156-5p	0.333	0.267613	-1.16	-4.81	-2.40	hsa-miR-3156-5p	
hsa-miR-502-3p	0.337	0.271698	1.15	-4.82	1.46	hsa-miR-502-3p	
hsa-miR-574-3p	0.344	0.27752	-1.14	-4.83	-6.94e-01	hsa-miR-574-3p	
hsa-miR-501-5p	0.345	0.278248	1.14	-4.83	5.88e-01	hsa-miR-501-5p	
hsa-miR-363	0.347	0.28004	1.13	-4.83	2.78	hsa-miR-363	
dmr_285	0.351	0.28376	-1.12	-4.84	-2.77e-01		dmr_285
hsa-miR-107	0.362	0.293296	1.10	-4.86	1.72e-01	hsa-miR-107	
hsa-miR-125a-5p	0.375	0.303546	-1.08	-4.88	-3.10e-01	hsa-miR-125a-5p	
hsv2-miR-H22	0.376	0.305127	-1.07	-4.88	-1.98	hsv2-miR-H22	
hsa-miR-30e*	0.382	0.309748	-1.06	-4.89	-4.99e-01	hsa-miR-30e*	
hsa-miR-34b*	0.39	0.316737	1.05	-4.9	1.24	hsa-miR-34b*	
hsa-miR-507	0.392	0.318626	1.04	-4.91	2.03	hsa-miR-507	
hsa-miR-3665	0.394	0.320861	1.04	-4.91	4.22e-01	hsa-miR-3665	
hsa-miR-132*	0.401	0.326565	1.02	-4.92	7.94e-01	hsa-miR-132*	
hsa-let-7a	0.402	0.327838	1.02	-4.92	2.44e-01	hsa-let-7a	
hsa-miR-222	0.403	0.32914	-1.02	-4.92	-5.19e-01	hsa-miR-222	
hsa-miR-664	0.41	0.334637	1.01	-4.93	1.37	hsa-miR-664	
hsa-miR-105	0.412	0.336833	1.00	-4.94	1.05	hsa-miR-105	
hsa-miR-193a-3p	0.419	0.342469	-9.89e-01	-4.95	-4.27e-01	hsa-miR-193a-3p	
hsa-miR-887	0.42	0.343845	9.86e-01	-4.95	4.27e-01	hsa-miR-887	
hsa-miR-140-5p	0.428	0.350778	-9.71e-01	-4.96	-3.00e-01	hsa-miR-140-5p	
hsa-miR-152	0.431	0.353169	-9.66e-01	-4.96	-6.46e-01	hsa-miR-152	
hsv1-miR-H18	0.431	0.353671	9.65e-01	-4.96	5.74e-01	hsv1-miR-H18	
hsa-miR-127-3p	0.431	0.354534	-9.64e-01	-4.97	-1.75	hsa-miR-127-3p	
hsa-miR-335	0.432	0.355186	9.62e-01	-4.97	1.04	hsa-miR-335	
hsa-miR-455-3p	0.442	0.363698	-9.45e-01	-4.98	-6.19e-01	hsa-miR-455-3p	
hsa-miR-3653	0.448	0.369425	-9.33e-01	-4.99	-3.45e-01	hsa-miR-3653	
hur_5	0.449	0.370614	-9.31e-01	-4.99	-2.37e-01		hur_5
hsa-miR-212	0.453	0.373658	9.25e-01	-4.99	4.70e-01	hsa-miR-212	
hsa-miR-202	0.453	0.374549	9.23e-01	-4.99	1.07	hsa-miR-202	
hsa-miR-574-5p	0.454	0.375147	-9.22e-01	-5	-5.06e-01	hsa-miR-574-5p	
hsa-miR-3907	0.463	0.383271	9.06e-01	-5.01	7.29e-01	hsa-miR-3907	
hsa-miR-126*	0.464	0.384428	9.03e-01	-5.01	4.76e-01	hsa-miR-126*	
hsa-miR-95	0.464	0.38501	9.02e-01	-5.01	9.74e-01	hsa-miR-95	
hsa-miR-486-5p	0.469	0.38874	8.95e-01	-5.01	1.69	hsa-miR-486-5p	
hsa-miR-26b	0.477	0.396026	8.81e-01	-5.02	2.69e-01	hsa-miR-26b	
ebv-miR-BART16	0.478	0.397653	-8.78e-01	-5.03	-5.94e-01	ebv-miR-BART16	
hsa-miR-135a*	0.482	0.401307	8.71e-01	-5.03	1.41	hsa-miR-135a*	
hsa-miR-320d	0.487	0.405249	-8.63e-01	-5.04	-2.47e-01	hsa-miR-320d	
hsv1-miR-H7*	0.496	0.413266	-8.48e-01	-5.05	-9.17e-01	hsv1-miR-H7*	
hsa-miR-223	0.496	0.413648	-8.47e-01	-5.05	-9.69e-01	hsa-miR-223	
hsa-miR-3667-5p	0.499	0.416881	-8.41e-01	-5.05	-9.02e-01	hsa-miR-3667-5p	
hsa-miR-423-5p	0.501	0.418848	-8.38e-01	-5.05	-3.69e-01	hsa-miR-423-5p	
hsa-miR-4313	0.504	0.421857	-8.32e-01	-5.06	-8.28e-01	hsa-miR-4313	
hsa-miR-320a	0.504	0.42206	-8.32e-01	-5.06	-3.14e-01	hsa-miR-320a	
hsa-miR-4298	0.506	0.424198	-8.28e-01	-5.06	-1.15	hsa-miR-4298	
hsa-miR-3137	0.507	0.425536	8.25e-01	-5.06	1.03	hsa-miR-3137	
hsa-miR-30b*	0.507	0.425706	8.25e-01	-5.06	1.15	hsa-miR-30b*	
hcmv-miR-UL70-3p	0.509	0.427139	-8.22e-01	-5.06	-1.28	hcmv-miR-UL70-3p	
hsa-miR-3923	0.511	0.42964	8.18e-01	-5.07	7.21e-01	hsa-miR-3923	
hsa-miR-31	0.513	0.43192	-8.14e-01	-5.07	-1.86	hsa-miR-31	
hsa-miR-365	0.516	0.434605	-8.09e-01	-5.07	-3.35e-01	hsa-miR-365	
hsa-miR-30a*	0.521	0.43908	-8.01e-01	-5.08	-1.02	hsa-miR-30a*	
hsa-miR-671-5p	0.53	0.447082	-7.86e-01	-5.09	-1.52	hsa-miR-671-5p	
hsa-miR-3162-5p	0.534	0.451166	7.79e-01	-5.09	4.24e-01	hsa-miR-3162-5p	
hsa-miR-3188	0.551	0.465864	7.54e-01	-5.11	1.40	hsa-miR-3188	
hsa-miR-940	0.551	0.465909	7.53e-01	-5.11	2.42e-01	hsa-miR-940	
hsa-miR-24-1*	0.553	0.468102	-7.50e-01	-5.11	-1.10	hsa-miR-24-1*	
hsa-miR-301b	0.559	0.473669	7.40e-01	-5.11	7.30e-01	hsa-miR-301b	
hsa-miR-362-5p	0.562	0.476692	7.35e-01	-5.12	2.75e-01	hsa-miR-362-5p	
hsa-miR-181c	0.566	0.480495	-7.28e-01	-5.12	-1.07	hsa-miR-181c	
hsa-miR-642b	0.57	0.484344	7.22e-01	-5.12	5.40e-01	hsa-miR-642b	
hsa-miR-203	0.573	0.486813	7.18e-01	-5.13	2.26	hsa-miR-203	
hsa-let-7b	0.573	0.487514	-7.17e-01	-5.13	-2.84e-01	hsa-let-7b	
hsa-miR-769-5p	0.573	0.488375	7.15e-01	-5.13	1.00	hsa-miR-769-5p	
hsa-miR-4324	0.577	0.491579	-7.10e-01	-5.13	-1.12	hsa-miR-4324	
hsa-miR-320b	0.583	0.497343	-7.00e-01	-5.14	-2.28e-01	hsa-miR-320b	
hsa-miR-1271	0.586	0.500718	-6.95e-01	-5.14	-9.19e-01	hsa-miR-1271	
hsa-miR-3141	0.587	0.50119	6.94e-01	-5.14	1.53	hsa-miR-3141	
hsa-miR-1290	0.587	0.50184	6.93e-01	-5.14	1.12	hsa-miR-1290	
hsa-miR-30a	0.588	0.50347	-6.90e-01	-5.14	-2.37e-01	hsa-miR-30a	
hsa-miR-1274b_v16.0	0.597	0.511948	6.76e-01	-5.15	4.14e-01	hsa-miR-1274b_v16.0	
hsa-miR-342-5p	0.597	0.511981	6.76e-01	-5.15	1.16	hsa-miR-342-5p	
hsa-miR-601	0.597	0.512463	-6.75e-01	-5.15	-8.69e-01	hsa-miR-601	
hsa-miR-145	0.608	0.522123	-6.60e-01	-5.16	-5.75e-01	hsa-miR-145	
hsa-miR-186	0.609	0.523353	6.58e-01	-5.16	6.73e-01	hsa-miR-186	
hsa-miR-224	0.609	0.523623	-6.57e-01	-5.16	-1.18	hsa-miR-224	
hsa-miR-1471	0.609	0.52466	-6.56e-01	-5.16	-8.61e-01	hsa-miR-1471	
hsa-let-7c	0.612	0.527613	-6.51e-01	-5.16	-3.53e-01	hsa-let-7c	
hsa-miR-155	0.619	0.533509	6.41e-01	-5.17	3.36e-01	hsa-miR-155	
hsa-miR-873	0.619	0.534152	-6.40e-01	-5.17	-3.65e-02	hsa-miR-873	
hsa-miR-135b	0.619	0.534518	6.40e-01	-5.17	5.43e-01	hsa-miR-135b	
hsa-miR-508-5p	0.62	0.536487	-6.37e-01	-5.17	-5.69e-01	hsa-miR-508-5p	
hsa-miR-652	0.623	0.539223	6.32e-01	-5.17	1.00	hsa-miR-652	
hsa-miR-137	0.626	0.542022	6.28e-01	-5.17	8.11e-01	hsa-miR-137	
hsa-miR-31*	0.626	0.542991	-6.26e-01	-5.18	-1.26	hsa-miR-31*	
hsa-miR-3926	0.628	0.545179	6.23e-01	-5.18	6.85e-01	hsa-miR-3926	
hsv1-miR-H1	0.628	0.545288	6.23e-01	-5.18	7.25e-01	hsv1-miR-H1	
hsa-miR-3646	0.63	0.547786	6.19e-01	-5.18	6.71e-01	hsa-miR-3646	
hsa-miR-4306	0.63	0.548149	-6.18e-01	-5.18	-2.39e-01	hsa-miR-4306	
hsa-miR-150	0.632	0.550191	6.15e-01	-5.18	5.75e-01	hsa-miR-150	
hsa-miR-378b	0.632	0.551308	6.13e-01	-5.18	5.70e-01	hsa-miR-378b	
hsa-miR-3682-3p	0.632	0.55155	6.13e-01	-5.18	6.01e-01	hsa-miR-3682-3p	
hsa-miR-1273d	0.634	0.553076	6.11e-01	-5.18	5.43e-01	hsa-miR-1273d	
hsa-miR-532-5p	0.634	0.553701	6.10e-01	-5.18	1.89e-01	hsa-miR-532-5p	
hsa-miR-129*	0.635	0.554867	6.08e-01	-5.18	5.19e-01	hsa-miR-129*	
hsa-miR-584	0.636	0.556405	6.05e-01	-5.19	4.92e-01	hsa-miR-584	
hsa-miR-3934	0.636	0.557167	6.04e-01	-5.19	4.90e-01	hsa-miR-3934	
hsa-miR-24	0.638	0.558816	-6.02e-01	-5.19	-1.48e-01	hsa-miR-24	
hsv1-miR-H15	0.638	0.559846	6.00e-01	-5.19	4.88e-01	hsv1-miR-H15	
hsa-miR-27b	0.639	0.561372	-5.98e-01	-5.19	-2.93e-01	hsa-miR-27b	
hsa-miR-3132	0.642	0.564508	5.93e-01	-5.19	4.41e-01	hsa-miR-3132	
hsa-miR-33a	0.643	0.565658	5.91e-01	-5.19	5.68e-01	hsa-miR-33a	
hsa-miR-144*	0.645	0.56734	5.88e-01	-5.19	4.26e-01	hsa-miR-144*	
hsa-miR-133b	0.646	0.56944	-5.85e-01	-5.2	-8.42e-01	hsa-miR-133b	
hsa-miR-502-5p	0.649	0.57256	5.80e-01	-5.2	3.43e-01	hsa-miR-502-5p	
hsa-miR-542-3p	0.653	0.576239	-5.75e-01	-5.2	-7.78e-01	hsa-miR-542-3p	
hsa-miR-3917	0.653	0.576822	-5.74e-01	-5.2	-7.20e-01	hsa-miR-3917	
hsa-miR-575	0.653	0.576827	-5.74e-01	-5.2	-8.17e-01	hsa-miR-575	
hsa-miR-22*	0.653	0.577305	5.73e-01	-5.2	3.15e-01	hsa-miR-22*	
hsa-miR-3196	0.659	0.583666	5.63e-01	-5.21	1.87e-01	hsa-miR-3196	
hsa-miR-4271	0.664	0.588585	5.56e-01	-5.21	2.70e-01	hsa-miR-4271	
hsa-miR-214*	0.666	0.590729	-5.53e-01	-5.21	-3.29e-02	hsa-miR-214*	
hsa-miR-1226*	0.67	0.594532	-5.47e-01	-5.21	-7.63e-01	hsa-miR-1226*	
hsa-miR-744	0.671	0.595636	5.45e-01	-5.21	2.37e-01	hsa-miR-744	
hsa-miR-4291	0.673	0.597829	-5.42e-01	-5.22	-9.70e-01	hsa-miR-4291	
hsa-miR-4286	0.678	0.603758	5.33e-01	-5.22	2.15e-01	hsa-miR-4286	
hcmv-miR-US4	0.678	0.60386	-5.33e-01	-5.22	-5.95e-01	hcmv-miR-US4	
hsa-miR-455-5p	0.683	0.60856	5.26e-01	-5.22	2.04e-01	hsa-miR-455-5p	
hsa-miR-1273e	0.683	0.609191	5.25e-01	-5.22	2.05e-01	hsa-miR-1273e	
hsa-miR-1915	0.684	0.611711	5.21e-01	-5.22	2.00e-01	hsa-miR-1915	
hsa-miR-3154	0.684	0.611759	5.21e-01	-5.22	1.99e-01	hsa-miR-3154	
hsa-miR-625	0.684	0.611782	-5.21e-01	-5.22	-7.20e-01	hsa-miR-625	
hsa-miR-30c	0.685	0.612621	5.20e-01	-5.22	1.49e-01	hsa-miR-30c	
hsa-miR-628-5p	0.685	0.613512	-5.19e-01	-5.23	-2.32e-01	hsa-miR-628-5p	
hsa-miR-4270	0.686	0.615146	-5.16e-01	-5.23	-3.88e-01	hsa-miR-4270	
kshv-miR-K12-3	0.698	0.626647	-4.99e-01	-5.23	-1.84e-01	kshv-miR-K12-3	
hsa-miR-26a	0.698	0.626661	-4.99e-01	-5.23	-1.50e-01	hsa-miR-26a	
hsa-miR-1225-5p	0.699	0.627542	-4.98e-01	-5.23	-3.17e-01	hsa-miR-1225-5p	
hsa-miR-503	0.699	0.62833	-4.97e-01	-5.23	-5.90e-01	hsa-miR-503	
hsa-miR-340*	0.7	0.629585	4.95e-01	-5.24	8.03e-01	hsa-miR-340*	
hsa-miR-196a	0.703	0.632879	-4.90e-01	-5.24	-2.55e-01	hsa-miR-196a	
hsa-miR-623	0.704	0.634256	4.88e-01	-5.24	1.54e-01	hsa-miR-623	
hsa-miR-1914*	0.704	0.635054	-4.87e-01	-5.24	-9.07e-01	hsa-miR-1914*	
hsa-miR-3610	0.709	0.640047	-4.80e-01	-5.24	-6.64e-01	hsa-miR-3610	
ebv-miR-BART3*	0.72	0.650924	4.64e-01	-5.25	1.29e-01	ebv-miR-BART3*	
hsa-miR-151-3p	0.72	0.651316	-4.64e-01	-5.25	-1.55e-01	hsa-miR-151-3p	
hsa-miR-15b	0.721	0.652695	-4.62e-01	-5.25	-1.46e-01	hsa-miR-15b	
hsa-miR-185	0.725	0.656462	-4.56e-01	-5.25	-1.89e-01	hsa-miR-185	
hsa-miR-451	0.732	0.663215	4.47e-01	-5.25	3.70e-01	hsa-miR-451	
hsa-miR-142-5p	0.732	0.66436	-4.45e-01	-5.25	-9.24e-01	hsa-miR-142-5p	
dmr_3	0.747	0.678892	4.24e-01	-5.26	8.78e-02		dmr_3
hsa-miR-144	0.747	0.678942	-4.24e-01	-5.26	-6.02e-01	hsa-miR-144	
hsv1-miR-H8	0.747	0.679623	4.23e-01	-5.26	4.76e-01	hsv1-miR-H8	
hsa-miR-1207-5p	0.748	0.680814	4.22e-01	-5.26	1.65e-01	hsa-miR-1207-5p	
hsa-miR-3945	0.748	0.681454	4.21e-01	-5.26	3.11e-01	hsa-miR-3945	
hsa-miR-183	0.753	0.687384	-4.12e-01	-5.27	-5.35e-01	hsa-miR-183	
hsa-let-7d	0.753	0.68785	-4.12e-01	-5.27	-1.14e-01	hsa-let-7d	
hsa-miR-361-5p	0.753	0.688105	-4.11e-01	-5.27	-9.49e-02	hsa-miR-361-5p	
hsa-miR-3663-3p	0.753	0.688332	4.11e-01	-5.27	2.12e-01	hsa-miR-3663-3p	
hsa-miR-718	0.757	0.692058	4.06e-01	-5.27	6.98e-01	hsa-miR-718	
hsa-miR-582-5p	0.764	0.699493	-3.96e-01	-5.27	-8.37e-01	hsa-miR-582-5p	
hsa-miR-630	0.766	0.701557	3.93e-01	-5.27	9.25e-01	hsa-miR-630	
hsa-miR-3937	0.766	0.702347	3.92e-01	-5.27	7.40e-01	hsa-miR-3937	
hsa-miR-1268	0.766	0.703154	-3.90e-01	-5.27	-1.91e-01	hsa-miR-1268	
hsa-miR-424*	0.767	0.704685	-3.88e-01	-5.27	-5.72e-01	hsa-miR-424*	
hsa-miR-505*	0.767	0.705409	-3.87e-01	-5.27	-1.18e-01	hsa-miR-505*	
hsa-miR-23a	0.767	0.705838	3.87e-01	-5.27	9.84e-02	hsa-miR-23a	
hsa-miR-4284	0.767	0.706328	-3.86e-01	-5.27	-4.66e-01	hsa-miR-4284	
hsa-miR-378	0.768	0.707191	3.85e-01	-5.28	2.99e-01	hsa-miR-378	
hsa-miR-130a	0.769	0.70888	-3.82e-01	-5.28	-2.43e-01	hsa-miR-130a	
hsa-miR-200a	0.772	0.712107	3.78e-01	-5.28	6.97e-01	hsa-miR-200a	
hsa-miR-23b	0.773	0.713539	-3.76e-01	-5.28	-2.28e-01	hsa-miR-23b	
ebv-miR-BART13	0.775	0.715981	-3.73e-01	-5.28	-2.36e-01	ebv-miR-BART13	
hsa-miR-99a	0.775	0.716406	3.72e-01	-5.28	3.95e-01	hsa-miR-99a	
hsa-miR-188-5p	0.777	0.719087	3.68e-01	-5.28	6.40e-01	hsa-miR-188-5p	
hsa-miR-15a	0.782	0.724132	3.61e-01	-5.28	1.16e-01	hsa-miR-15a	
hsa-miR-34a	0.783	0.725538	3.60e-01	-5.28	1.52e-01	hsa-miR-34a	
hsa-miR-638	0.783	0.726233	-3.59e-01	-5.28	-1.38e-01	hsa-miR-638	
hsa-miR-98	0.784	0.727552	3.57e-01	-5.28	1.88e-01	hsa-miR-98	
hsa-miR-424	0.788	0.732432	-3.50e-01	-5.29	-3.13e-01	hsa-miR-424	
hsa-miR-29c*	0.79	0.734405	3.47e-01	-5.29	5.46e-01	hsa-miR-29c*	
hsa-miR-221	0.795	0.739609	-3.40e-01	-5.29	-8.66e-02	hsa-miR-221	
hsa-miR-197	0.796	0.741264	-3.38e-01	-5.29	-1.01e-01	hsa-miR-197	
hsa-miR-181b	0.797	0.742896	-3.36e-01	-5.29	-1.65e-01	hsa-miR-181b	
hsa-miR-766	0.8	0.746527	-3.31e-01	-5.29	-4.24e-01	hsa-miR-766	
hsa-miR-3656	0.8	0.746935	-3.30e-01	-5.29	-1.50e-01	hsa-miR-3656	
hsa-miR-939	0.803	0.75033	-3.26e-01	-5.29	-1.33e-01	hsa-miR-939	
hsv2-miR-H25	0.808	0.755341	3.19e-01	-5.29	5.20e-01	hsv2-miR-H25	
hsa-miR-28-5p	0.808	0.756348	-3.18e-01	-5.29	-8.99e-02	hsa-miR-28-5p	
hsa-miR-2276	0.808	0.756536	-3.17e-01	-5.29	-4.46e-01	hsa-miR-2276	
hsa-miR-1274a_v16.0	0.819	0.76801	-3.02e-01	-5.3	-2.29e-01	hsa-miR-1274a_v16.0	
hsa-miR-23b*	0.819	0.768248	-3.02e-01	-5.3	-3.33e-01	hsa-miR-23b*	
hsa-miR-4317	0.822	0.771391	2.97e-01	-5.3	3.99e-01	hsa-miR-4317	
hsa-miR-199b-5p	0.824	0.773983	2.94e-01	-5.3	1.96e-01	hsa-miR-199b-5p	
hsa-miR-2861	0.825	0.775549	-2.92e-01	-5.3	-9.71e-02	hsa-miR-2861	
hsa-miR-21*	0.83	0.780467	-2.85e-01	-5.3	-3.64e-01	hsa-miR-21*	
hsa-miR-34c-5p	0.836	0.786952	-2.76e-01	-5.3	-4.67e-01	hsa-miR-34c-5p	
kshv-miR-K12-10b	0.841	0.792062	2.70e-01	-5.31	1.27e-01	kshv-miR-K12-10b	
hsa-miR-132	0.843	0.795037	2.66e-01	-5.31	1.49e-01	hsa-miR-132	
hsa-miR-3652	0.844	0.796505	-2.64e-01	-5.31	-4.17e-01	hsa-miR-3652	
hsa-miR-30e	0.845	0.797698	-2.62e-01	-5.31	-1.15e-01	hsa-miR-30e	
hsa-miR-1202	0.846	0.799484	-2.60e-01	-5.31	-1.81e-01	hsa-miR-1202	
hsa-miR-1972	0.847	0.801342	2.57e-01	-5.31	2.97e-01	hsa-miR-1972	
hsa-miR-199a-3p	0.849	0.803916	2.54e-01	-5.31	1.62e-01	hsa-miR-199a-3p	
hsa-miR-181a-2*	0.85	0.804803	2.53e-01	-5.31	4.46e-01	hsa-miR-181a-2*	
hsv2-miR-H10	0.85	0.806125	-2.51e-01	-5.31	-1.05e-01	hsv2-miR-H10	
hsa-miR-16	0.853	0.809425	2.47e-01	-5.31	6.46e-02	hsa-miR-16	
hsv1-miR-H16	0.854	0.81136	-2.44e-01	-5.31	-3.41e-01	hsv1-miR-H16	
hsa-miR-151-5p	0.855	0.812711	2.42e-01	-5.31	7.04e-02	hsa-miR-151-5p	
hsa-miR-762	0.855	0.812773	2.42e-01	-5.31	1.07e-01	hsa-miR-762	
hsa-miR-205	0.858	0.816893	2.37e-01	-5.31	6.70e-01	hsa-miR-205	
hsa-miR-192	0.858	0.817414	-2.36e-01	-5.31	-4.28e-01	hsa-miR-192	
hsa-miR-3679-5p	0.86	0.819547	-2.33e-01	-5.31	-1.44e-01	hsa-miR-3679-5p	
hsa-miR-218	0.863	0.823284	-2.28e-01	-5.31	-3.69e-01	hsa-miR-218	
hsa-miR-483-5p	0.863	0.824424	2.27e-01	-5.32	5.50e-01	hsa-miR-483-5p	
hsa-miR-130b	0.863	0.824623	2.27e-01	-5.32	1.18e-01	hsa-miR-130b	
hsa-miR-1280	0.864	0.826113	-2.25e-01	-5.32	-1.07e-01	hsa-miR-1280	
hsa-miR-145*	0.864	0.826542	2.24e-01	-5.32	3.53e-01	hsa-miR-145*	
hsa-miR-148a	0.868	0.831505	-2.18e-01	-5.32	-1.27e-01	hsa-miR-148a	
ebv-miR-BART12	0.872	0.836143	2.11e-01	-5.32	3.02e-01	ebv-miR-BART12	
hsa-miR-331-3p	0.874	0.838676	-2.08e-01	-5.32	-6.71e-02	hsa-miR-331-3p	
hsa-miR-664*	0.883	0.847045	1.97e-01	-5.32	3.42e-01	hsa-miR-664*	
hsa-miR-342-3p	0.885	0.850171	-1.93e-01	-5.32	-1.08e-01	hsa-miR-342-3p	
hbv-miR-B2RC	0.888	0.853208	-1.89e-01	-5.32	-1.71e-01	hbv-miR-B2RC	
hsa-miR-30d*	0.893	0.858853	1.82e-01	-5.32	2.27e-02	hsa-miR-30d*	
hsa-miR-200c	0.896	0.862519	1.77e-01	-5.32	4.09e-01	hsa-miR-200c	
hsa-miR-629*	0.899	0.865928	1.73e-01	-5.32	2.38e-01	hsa-miR-629*	
hsa-miR-516a-5p	0.903	0.870484	1.67e-01	-5.32	2.00e-02	hsa-miR-516a-5p	
hsa-miR-100	0.917	0.885418	-1.47e-01	-5.33	-9.95e-02	hsa-miR-100	
hsa-miR-551b	0.917	0.885952	1.47e-01	-5.33	2.82e-01	hsa-miR-551b	
hsa-miR-204	0.921	0.890118	1.41e-01	-5.33	3.17e-01	hsa-miR-204	
hsa-miR-200b	0.922	0.891626	1.39e-01	-5.33	2.90e-01	hsa-miR-200b	
hsa-miR-3138	0.928	0.8977	-1.31e-01	-5.33	-2.39e-01	hsa-miR-3138	
hsa-miR-324-3p	0.929	0.900385	1.28e-01	-5.33	3.04e-02	hsa-miR-324-3p	
hsa-miR-3911	0.929	0.900541	1.28e-01	-5.33	2.37e-01	hsa-miR-3911	
hsa-miR-1260b	0.929	0.901033	-1.27e-01	-5.33	-6.82e-02	hsa-miR-1260b	
hsa-miR-3194-5p	0.933	0.905718	-1.21e-01	-5.33	-1.97e-01	hsa-miR-3194-5p	
hsa-miR-3195	0.933	0.906677	1.20e-01	-5.33	5.74e-02	hsa-miR-3195	
hsa-miR-497	0.933	0.906739	1.20e-01	-5.33	1.21e-01	hsa-miR-497	
hsa-miR-125b	0.935	0.910135	1.15e-01	-5.33	8.55e-02	hsa-miR-125b	
hsa-miR-195	0.949	0.924165	9.72e-02	-5.33	7.19e-02	hsa-miR-195	
miRNABrightCorner30	0.954	0.929141	-9.08e-02	-5.33	-3.12e-02		miRNABrightCorner30
hsa-miR-1249	0.958	0.934631	8.38e-02	-5.33	1.55e-01	hsa-miR-1249	
hsa-miR-3125	0.958	0.935304	8.29e-02	-5.33	7.32e-02	hsa-miR-3125	
hsa-miR-134	0.959	0.936976	-8.08e-02	-5.33	-3.67e-02	hsa-miR-134	
hsa-miR-1246	0.959	0.937505	8.01e-02	-5.33	1.13e-01	hsa-miR-1246	
hsa-miR-143	0.965	0.94348	-7.24e-02	-5.33	-5.96e-02	hsa-miR-143	
hsa-miR-874	0.966	0.945226	-7.02e-02	-5.33	-2.87e-02	hsa-miR-874	
hsa-miR-181a	0.971	0.950937	-6.28e-02	-5.33	-2.93e-02	hsa-miR-181a	
hsa-miR-214	0.971	0.952141	-6.13e-02	-5.34	-6.25e-02	hsa-miR-214	
hsa-miR-1469	0.973	0.955026	-5.76e-02	-5.34	-4.11e-02	hsa-miR-1469	
hsa-miR-148b	0.973	0.955365	-5.72e-02	-5.34	-2.59e-02	hsa-miR-148b	
hsa-miR-142-3p	0.973	0.955759	-5.67e-02	-5.34	-4.74e-02	hsa-miR-142-3p	
hsa-miR-125a-3p	0.974	0.958241	5.35e-02	-5.34	9.78e-02	hsa-miR-125a-3p	
hsa-miR-557	0.974	0.958613	5.30e-02	-5.34	8.69e-02	hsa-miR-557	
hsa-miR-4281	0.978	0.962809	4.76e-02	-5.34	2.72e-02	hsa-miR-4281	
hsa-miR-1260	0.981	0.966524	-4.29e-02	-5.34	-1.99e-02	hsa-miR-1260	
hsa-miR-296-5p	0.981	0.96741	-4.17e-02	-5.34	-3.03e-02	hsa-miR-296-5p	
hsa-miR-199a-5p	0.981	0.967649	4.14e-02	-5.34	4.05e-02	hsa-miR-199a-5p	
hsa-miR-338-3p	0.981	0.969707	3.88e-02	-5.34	6.31e-02	hsa-miR-338-3p	
hsa-miR-1183	0.981	0.97064	3.76e-02	-5.34	5.96e-02	hsa-miR-1183	
hsa-miR-1	0.981	0.970723	3.75e-02	-5.34	5.03e-02	hsa-miR-1	
hsa-miR-450a	0.981	0.970961	3.72e-02	-5.34	1.44e-02	hsa-miR-450a	
hsa-miR-765	0.983	0.97372	3.36e-02	-5.34	5.85e-02	hsa-miR-765	
hsa-miR-146b-5p	0.986	0.976943	-2.95e-02	-5.34	-1.43e-02	hsa-miR-146b-5p	
hsa-miR-361-3p	0.986	0.977883	2.83e-02	-5.34	3.80e-02	hsa-miR-361-3p	
hiv1-miR-H1	0.992	0.984637	-1.97e-02	-5.34	-2.65e-02	hiv1-miR-H1	
hsa-miR-141	0.996	0.989335	1.37e-02	-5.34	3.21e-02	hsa-miR-141	
hsv1-miR-H17	0.996	0.989898	1.29e-02	-5.34	2.48e-02	hsv1-miR-H17	
hsa-miR-29c	0.997	0.991649	1.07e-02	-5.34	3.23e-03	hsa-miR-29c	
hsa-miR-373*	0.998	0.993739	8.01e-03	-5.34	9.25e-03	hsa-miR-373*	
hsa-miR-1305	0.999	0.99527	-6.05e-03	-5.34	-1.06e-02	hsa-miR-1305	
hsa-miR-720	1	0.997069	3.75e-03	-5.34	1.22e-03	hsa-miR-720	
hsv1-miR-H6-5p	1	0.999893	1.37e-04	-5.34	1.85e-04	hsv1-miR-H6-5p	
hur_1	1	1	-2.48e-13	-5.34	-3.55e-15		hur_1
hur_2	1	1	2.48e-13	-5.34	3.55e-15		hur_2
hur_6	1	1	3.71e-13	-5.34	5.33e-15		hur_6
