"names" "sex"
"GSM416528" "Male"
"GSM416529" "Male"
"GSM416530" "Male"
"GSM416531" "Male"
"GSM416532" "Male"
"GSM416533" "Male"
"GSM416534" "Male"
"GSM416535" "Male"
"GSM416536" "Male"
"GSM416537" "Male"
"GSM416538" "Male"
"GSM416539" "Male"
"GSM416540" "Male"
"GSM416541" "Male"
"GSM416542" "Male"
"GSM416543" "Male"
"GSM416544" "Male"
"GSM416545" "Female"
"GSM416546" "Female"
"GSM416547" "Female"
"GSM416548" "Female"
"GSM416549" "Female"
"GSM416550" "Female"
"GSM416551" "Female"
"GSM416552" "Female"
"GSM416553" "Female"
"GSM416554" "Female"
"GSM416555" "Female"
"GSM416556" "Female"
"GSM416557" "Female"
"GSM416558" "Female"
"GSM416559" "Female"
"GSM416560" "Female"
"GSM416561" "Female"
"GSM416562" "Female"
"GSM416563" "Female"
"GSM416564" "Female"
"GSM416565" "Female"
"GSM416566" "Female"
"GSM416567" "Male"
"GSM416568" "Male"
"GSM416569" "Male"
"GSM416570" "Male"
"GSM416571" "Male"
"GSM416572" "Male"
"GSM416573" "Male"
"GSM416574" "Male"
"GSM416575" "Male"
"GSM416576" "Male"
"GSM416577" "Female"
"GSM416578" "Female"
"GSM416579" "Female"
"GSM416580" "Female"
"GSM416581" "Female"
"GSM416582" "Female"
"GSM416583" "Female"
"GSM416584" "Female"
"GSM416585" "Female"
"GSM416586" "Female"
"GSM416587" "Female"
"GSM416588" "Female"
"GSM416589" "Female"
"GSM416590" "Female"
